<?xml version="1.0" encoding="utf-8"?>
<!-- Generator: Adobe Illustrator 15.0.0, SVG Export Plug-In  -->
<!DOCTYPE svg PUBLIC "-//W3C//DTD SVG 1.1//EN" "http://www.w3.org/Graphics/SVG/1.1/DTD/svg11.dtd" [
	<!ENTITY ns_flows "http://ns.adobe.com/Flows/1.0/">
]>
<svg version="1.1"
	 xmlns="http://www.w3.org/2000/svg" xmlns:xlink="http://www.w3.org/1999/xlink" xmlns:a="http://ns.adobe.com/AdobeSVGViewerExtensions/3.0/"
	 x="0px" y="0px" width="48px" height="74px" viewBox="-0.1 0 48 74" overflow="visible" enable-background="new -0.1 0 48 74"
	 xml:space="preserve">
<defs>
</defs>
<path fill="#FFFFFF" d="M39,69.3h-0.1c-0.7-0.1-1.3-0.4-1.9-0.8l-0.1-0.1c-0.1-0.1-0.3-0.2-0.5-0.5l-10-13.4l-1.9-5.7l1.2-1.5l5-4.6
	l2.5-2.5l1.8,5.5l1.2,3.6l8.9,12c0.6,0.8,0.8,1.8,0.7,2.8c-0.1,1-0.7,1.8-1.5,2.4l-2.8,2.1c-0.5,0.3-1,0.6-1.6,0.7h-0.1h-0.5H39z"/>
<path fill="#DF9D00" d="M32.1,44.8L32.1,44.8L32.1,44.8l0.5,1.6l1.3,4l9.2,12.4c0.4,0.5,0.3,1.3-0.2,1.7l-2.8,2.1
	c-0.2,0.2-0.5,0.2-0.7,0.2l0,0l0,0l0,0c-0.3,0-0.5-0.1-0.7-0.3l0,0c-0.1-0.1-0.1-0.1-0.2-0.2l-9.7-13.1l-1.3-4l0.2-0.2L32.1,44.8
	 M34.4,35.5L29,40.9l-0.2,0.2l-4.5,4.2L24,45.6l-0.2,0.3l-0.2,0.2l-1.7,2.1l0.9,2.6l1.3,4l0.3,0.8l0.5,0.6l9.7,13.1
	c0.3,0.5,0.7,0.8,1,1l0.1,0.1c0.8,0.6,1.7,1.1,2.7,1.3l0.3,0.1h0.8h0.9l0.3-0.1c0.9-0.2,1.8-0.5,2.5-1.1l2.8-2.1
	c1.3-1,2.2-2.4,2.4-4s-0.2-3.3-1.1-4.6l-8.7-11.7L37.5,45L37,43.4L34.4,35.5L34.4,35.5z"/>
<path fill="#FFFFFF" d="M15.8,71.4c-1.9,0-3.4-1.6-3.3-3.5l0.4-18.4l5.7-7.3l-0.9-7.5l-0.1,0.1l-8.3,3.7c-0.5,0.2-1,0.3-1.6,0.3
	c-1.5,0-3-0.9-3.6-2.3l-1.2-2.6c-0.4-1-0.5-2-0.1-3c0.4-1,1.1-1.8,2.1-2.2L13,25l3.3-5.9c0.5-1.2,1.6-2.1,2.9-2.5l6.6-1.8
	c0.3-0.1,0.7-0.2,1.2-0.2c1.1,0,2.1,0.4,2.9,1.1l10.2,8.7l3.9,8.2c0.5,1,0.5,2.1,0.2,3.2c-0.4,1-1.1,1.9-2.1,2.3l-2.2,1.1
	c-0.6,0.3-1.2,0.4-1.8,0.4c-1.6,0-3-0.9-3.7-2.3l-1.9-3.9l0.8,5.7l0.1,1.2c0.1,0.5,0,1,0,1.4c-0.2,1.1-0.8,2.1-1.6,2.9l-4.6,4.2
	l-3.7,4.7l-0.3,14.8c0,1.8-1.6,3.3-3.4,3.3L15.8,71.4z"/>
<path fill="#DF9D00" d="M27,17.1c0.5,0,0.9,0.2,1.3,0.5l9.8,8.3l3.7,7.7c0.4,0.8,0,1.8-0.8,2.2l-2.2,1.1C38.5,37,38.2,37,38,37
	c-0.6,0-1.2-0.3-1.5-0.9l-3.1-6.6l-4.6-4l0.9,5.9l1.2,7.9l0.1,1.1c0,0.2,0,0.5,0,0.7c-0.1,0.5-0.4,1-0.8,1.4L26.4,46l-1,0.9
	l-4.3,5.5l-0.4,15.7c0,0.5-0.4,0.9-0.9,0.9l0,0l-3.9-0.1c-0.5,0-0.9-0.4-0.9-0.9l0.4-17.6l5.8-7.5l-1.6-13l-1.1,0.9l-2.2,1.8
	l-7.9,3.5c-0.2,0.1-0.4,0.1-0.6,0.1c-0.6,0-1.1-0.3-1.3-0.9l-1.2-2.6C5,32,5.3,31.1,6,30.8l8.9-4l3.7-6.7c0.2-0.6,0.7-1,1.3-1.2
	l6.6-1.8C26.7,17.2,26.8,17.1,27,17.1 M27,12.1c-0.5,0-1.1,0.1-1.7,0.2h-0.1h-0.1l-6.6,1.8c-1.9,0.5-3.6,1.9-4.5,3.7L11.2,23
	l-7.4,3.3c-1.5,0.7-2.8,2-3.4,3.6c-0.6,1.6-0.6,3.3,0.1,4.9l1.2,2.6c1,2.3,3.3,3.8,5.9,3.8c0.9,0,1.8-0.2,2.6-0.6l5.2-2.3l0.4,3.1
	l-4.5,5.9l-1,1.3v1.6L10,67.9c-0.1,3.3,2.5,6,5.8,6l3.9,0.1h0.1h0.1c3.2,0,5.9-2.6,5.9-5.8l0.3-14l3-3.9l0.7-0.6l3.8-3.5
	c1.2-1.1,2-2.6,2.3-4.2l0,0l0,0c0-0.1,0-0.2,0-0.3c0.7,0.2,1.4,0.4,2.1,0.4c0.9,0,1.8-0.2,2.7-0.6h0.1h0.1l2.2-1.1
	c1.6-0.8,2.8-2.1,3.4-3.8c0.6-1.7,0.5-3.5-0.3-5.1l-3.7-7.7l-0.5-1l-0.8-0.7l-9.8-8.3C30.3,12.7,28.7,12.1,27,12.1L27,12.1z"/>
<path fill="#FFFFFF" d="M22,18.4c-0.7,0-1.4-0.1-2-0.3c-3.5-0.9-5.9-4-5.9-7.7c0-4.4,3.6-7.9,7.9-7.9c4.3,0,7.9,3.6,7.9,7.9
	c0,2.1-0.8,4.1-2.3,5.6C26.2,17.6,24.2,18.4,22,18.4z"/>
<path fill="#DF9D00" d="M22,5c3,0,5.4,2.4,5.4,5.4c0,1.5-0.6,2.9-1.6,3.8c-1,1-2.4,1.6-3.9,1.6c-0.5,0-0.9-0.1-1.4-0.2
	c-2.3-0.6-4.1-2.7-4.1-5.3C16.6,7.4,19,5,22,5 M22,0c-5.8,0-10.4,4.7-10.4,10.4c0,4.8,3.2,8.9,7.8,10.1c0.9,0.2,1.7,0.3,2.6,0.3
	c2.8,0,5.4-1.1,7.4-3.1s3-4.6,3-7.4C32.5,4.7,27.8,0,22,0L22,0z"/>
</svg>
