<?xml version="1.0" encoding="utf-8"?>
<!-- Generator: Adobe Illustrator 15.0.0, SVG Export Plug-In . SVG Version: 6.00 Build 0)  -->
<!DOCTYPE svg PUBLIC "-//W3C//DTD SVG 1.1//EN" "http://www.w3.org/Graphics/SVG/1.1/DTD/svg11.dtd">
<svg version="1.1" id="レイヤー_1" xmlns="http://www.w3.org/2000/svg" xmlns:xlink="http://www.w3.org/1999/xlink" x="0px"
	 y="0px" width="195.791px" height="127.987px" viewBox="324.7 232.832 195.791 127.987"
	 enable-background="new 324.7 232.832 195.791 127.987" xml:space="preserve">
<path fill="#FFFFFF" stroke="#FFFFFF" stroke-miterlimit="10" d="M374.581,237.729c-0.09-0.569-0.371-1.131-0.84-1.67
	c-0.461-0.541-0.881-0.811-1.26-0.811h-12.682v14.71h7.812c0.18,0,0.408-0.101,0.658-0.29c0.262-0.189,0.5-0.43,0.73-0.72
	s0.42-0.591,0.559-0.91c0.143-0.32,0.191-0.601,0.143-0.86v2.961h-8.09c-0.23,0-0.592,0.209-1.08,0.619
	c-0.49,0.42-0.73,0.881-0.73,1.391v13.091h12.689c0.141,0,0.34-0.08,0.59-0.24s0.5-0.37,0.729-0.62
	c0.23-0.25,0.422-0.56,0.562-0.908c0.139-0.352,0.209-0.722,0.209-1.102v3.061h-17.359V235.05h17.359V237.729L374.581,237.729z"/>
<path fill="#FFFFFF" stroke="#FFFFFF" stroke-miterlimit="10" d="M399.821,257.601c0,1.851-0.553,3.5-1.643,4.971
	c-1.09,1.47-2.5,2.359-4.219,2.68c-0.09,0-0.201,0.03-0.311,0.1c-0.119,0.062-0.221,0.102-0.311,0.102h-6.211
	c-0.09,0-0.199-0.03-0.309-0.102c-0.121-0.06-0.223-0.1-0.312-0.1c-0.42-0.061-0.879-0.21-1.389-0.43
	c-0.51-0.221-1.021-0.54-1.531-0.95c-0.508-0.41-0.99-0.91-1.43-1.479s-0.799-1.24-1.08-2.011c-0.09-0.19-0.18-0.54-0.279-1.05
	c-0.09-0.51-0.141-0.83-0.141-0.96v-0.86h0.07l0.068,0.101c0.09,1.021,0.25,1.909,0.49,2.671c0.281,0.89,0.84,1.77,1.67,2.63
	c0.84,0.858,1.58,1.42,2.23,1.67c0.229,0.13,0.529,0.25,0.908,0.38c0.371,0.13,0.602,0.19,0.701,0.19h5.789
	c0.09,0,0.16-0.03,0.211-0.102c0.049-0.06,0.119-0.1,0.209-0.1c0.32,0,0.691-0.16,1.08-0.479c0.391-0.32,0.781-0.721,1.15-1.189
	c0.371-0.48,0.699-0.99,0.979-1.53c0.281-0.54,0.461-1.069,0.562-1.58c0.09-0.38,0.17-0.88,0.238-1.479
	c0.07-0.601,0.102-0.969,0.102-1.101c0-0.13-0.031-0.479-0.102-1.05c-0.068-0.568-0.148-1.08-0.238-1.529
	c0-0.061-0.021-0.141-0.07-0.24c-0.051-0.101-0.07-0.209-0.07-0.33c-0.051-0.061-0.1-0.17-0.17-0.33
	c-0.068-0.159-0.131-0.299-0.17-0.43c-0.09-0.381-0.291-0.779-0.59-1.189c-0.301-0.41-0.641-0.811-1.01-1.189
	c-0.371-0.38-0.762-0.681-1.15-0.91c-0.398-0.221-0.711-0.33-0.939-0.33h-3.561c-0.881,0-1.77-0.159-2.648-0.479
	c-0.883-0.319-1.682-0.8-2.4-1.43c-0.721-0.642-1.301-1.421-1.74-2.341s-0.66-2.021-0.66-3.301c0-1.779,0.49-3.31,1.459-4.59
	c0.98-1.27,2.211-2.13,3.701-2.58c0.561-0.188,1.09-0.289,1.602-0.289c0.51,0,1.02,0,1.527,0c0.602,0,1.271,0.029,1.99,0.101
	c0.721,0.06,1.451,0.25,2.201,0.569c0.74,0.319,1.438,0.83,2.09,1.529c0.65,0.7,1.209,1.721,1.67,3.061
	c0.09,0.189,0.15,0.449,0.17,0.761c0.021,0.319,0.061,0.608,0.102,0.858h-0.281c0-0.64-0.07-1.148-0.209-1.528
	c-0.461-1.211-0.99-2.15-1.57-2.82s-1.17-1.16-1.779-1.479s-1.221-0.521-1.852-0.619c-0.629-0.102-1.24-0.141-1.85-0.141
	c-0.09,0-0.379,0-0.869,0s-0.9,0.061-1.221,0.189c-1.391,0.51-2.391,1.449-3,2.818c-0.602,1.371-0.91,2.75-0.91,4.16
	c0,1.08,0.27,2.34,0.801,3.771c0.529,1.43,1.41,2.439,2.609,3.01c0.09,0.061,0.229,0.141,0.42,0.24c0.189,0.1,0.318,0.14,0.42,0.14
	h3.699c0.699,0,1.461,0.16,2.301,0.48c0.84,0.319,1.631,0.8,2.371,1.43c0.738,0.642,1.367,1.47,1.879,2.479
	C399.559,255.08,399.821,256.26,399.821,257.601z"/>
<path fill="#FFFFFF" stroke="#FFFFFF" stroke-miterlimit="10" d="M450.45,265.431h-2.51c-0.512-1.721-1.039-3.439-1.57-5.16
	c-0.529-1.721-1.01-3.439-1.43-5.16c-0.051-0.25-0.172-0.51-0.381-0.76c-0.211-0.25-0.439-0.49-0.699-0.721
	c-0.262-0.22-0.512-0.41-0.771-0.568c-0.26-0.16-0.43-0.24-0.52-0.24h-7.949L431,265.431h-0.211l8.51-30.381h2.58L450.45,265.431z
	 M444.25,252.53l-4.74-16.91l-4.881,16.91H444.25z"/>
<path fill="#FFFFFF" stroke="#FFFFFF" stroke-miterlimit="10" d="M490.911,265.431H490.7v-27.32c0-0.51-0.141-0.989-0.42-1.43
	c-0.279-0.449-0.561-0.801-0.84-1.051c-0.42-0.38-0.91-0.568-1.459-0.568h2.93V265.431z"/>
<path fill="#FFFFFF" stroke="#FFFFFF" stroke-miterlimit="10" d="M491.29,265.812h-0.959V238.11c0-0.439-0.121-0.84-0.361-1.229
	c-0.26-0.409-0.52-0.739-0.77-0.97c-0.352-0.32-0.75-0.471-1.209-0.471v-0.75h3.299V265.812z M489.79,235.431
	c0.25,0.25,0.5,0.561,0.75,0.939v-0.939H489.79z"/>
<path fill="#FFFFFF" stroke="#FFFFFF" stroke-miterlimit="10" d="M435.379,359.729h-0.209V332.41c0-0.511-0.141-0.99-0.42-1.431
	c-0.281-0.449-0.561-0.791-0.84-1.051c-0.42-0.38-0.91-0.57-1.461-0.57h2.93V359.729z"/>
<path fill="#FFFFFF" stroke="#FFFFFF" stroke-miterlimit="10" d="M435.76,360.101h-0.961v-27.701c0-0.439-0.119-0.84-0.357-1.229
	c-0.262-0.41-0.521-0.739-0.771-0.97c-0.35-0.32-0.75-0.471-1.211-0.471v-0.75h3.301V360.101L435.76,360.101z M434.26,329.729
	c0.25,0.25,0.5,0.561,0.75,0.939v-0.939H434.26z"/>
<path fill="#FFFFFF" stroke="#FFFFFF" stroke-miterlimit="10" d="M519.991,257.601c0,1.851-0.551,3.5-1.643,4.971
	c-1.09,1.47-2.5,2.359-4.219,2.68c-0.09,0-0.201,0.03-0.311,0.1c-0.119,0.062-0.221,0.102-0.311,0.102h-6.211
	c-0.09,0-0.199-0.03-0.309-0.102c-0.121-0.06-0.221-0.1-0.32-0.1c-0.42-0.061-0.881-0.21-1.4-0.43c-0.51-0.221-1.02-0.54-1.529-0.95
	c-0.508-0.41-0.99-0.91-1.43-1.479s-0.801-1.24-1.08-2.011c-0.092-0.19-0.182-0.54-0.279-1.05c-0.09-0.51-0.141-0.83-0.141-0.96
	v-0.86h0.068l0.07,0.101c0.09,1.021,0.25,1.909,0.49,2.671c0.279,0.89,0.84,1.77,1.67,2.63c0.84,0.858,1.58,1.42,2.229,1.67
	c0.23,0.13,0.531,0.25,0.91,0.38c0.371,0.13,0.6,0.19,0.701,0.19h5.789c0.09,0,0.16-0.03,0.211-0.102
	c0.049-0.06,0.119-0.1,0.209-0.1c0.32,0,0.68-0.16,1.08-0.479c0.391-0.32,0.781-0.721,1.15-1.189c0.369-0.48,0.699-0.99,0.979-1.53
	c0.281-0.54,0.461-1.069,0.561-1.58c0.092-0.38,0.17-0.88,0.24-1.479c0.07-0.601,0.109-0.969,0.109-1.101
	c0-0.13-0.039-0.479-0.109-1.05s-0.148-1.08-0.24-1.529c0-0.061-0.029-0.141-0.068-0.24c-0.051-0.101-0.07-0.209-0.07-0.33
	c-0.051-0.061-0.109-0.17-0.17-0.33c-0.07-0.159-0.131-0.299-0.17-0.43c-0.09-0.381-0.291-0.779-0.59-1.189
	c-0.301-0.41-0.643-0.811-1.012-1.189c-0.369-0.381-0.76-0.681-1.148-0.91c-0.391-0.221-0.711-0.33-0.941-0.33h-3.559
	c-0.881,0-1.771-0.159-2.65-0.479c-0.879-0.319-1.689-0.8-2.41-1.43c-0.721-0.642-1.301-1.421-1.738-2.341
	c-0.441-0.92-0.66-2.021-0.66-3.301c0-1.779,0.49-3.31,1.459-4.59c0.98-1.27,2.211-2.13,3.701-2.58
	c0.559-0.188,1.09-0.289,1.6-0.289s1.021,0,1.529,0c0.6,0,1.27,0.029,1.99,0.101c0.721,0.06,1.449,0.25,2.199,0.569
	c0.74,0.319,1.439,0.83,2.092,1.529c0.648,0.7,1.209,1.721,1.67,3.061c0.09,0.189,0.148,0.449,0.17,0.761
	c0.02,0.319,0.059,0.608,0.1,0.858h-0.281c0-0.64-0.068-1.148-0.209-1.528c-0.461-1.211-0.99-2.15-1.568-2.82
	c-0.58-0.67-1.172-1.16-1.781-1.479c-0.6-0.319-1.219-0.521-1.85-0.619c-0.631-0.102-1.24-0.141-1.852-0.141
	c-0.09,0-0.379,0-0.869,0s-0.898,0.061-1.221,0.189c-1.389,0.51-2.389,1.449-3,2.818c-0.6,1.371-0.91,2.75-0.91,4.16
	c0,1.08,0.271,2.34,0.801,3.771c0.529,1.43,1.4,2.439,2.609,3.01c0.09,0.061,0.229,0.141,0.42,0.24s0.32,0.14,0.42,0.14h3.701
	c0.699,0,1.459,0.16,2.299,0.48c0.84,0.319,1.621,0.8,2.371,1.43c0.74,0.642,1.369,1.47,1.879,2.479
	C519.731,255.08,519.991,256.26,519.991,257.601z"/>
<path fill="#FFFFFF" stroke="#FFFFFF" stroke-miterlimit="10" d="M342.709,304.05c0,1.471-0.34,2.96-1.01,4.49
	c-0.67,1.529-1.75,2.641-3.24,3.34c-0.189,0.061-0.42,0.141-0.699,0.24s-0.461,0.14-0.561,0.14h-11.99v-30.38h9.131
	c0.189,0,0.48,0.08,0.869,0.24c0.391,0.158,0.73,0.3,1.01,0.43c1.07,0.7,1.84,1.67,2.301,2.91s0.699,2.41,0.699,3.49
	c0,1.27-0.277,2.55-0.84,3.818c-0.559,1.271-1.51,2.26-2.859,2.961c0.23,0.061,0.512,0.08,0.842,0.049
	c0.33-0.028,0.629-0.01,0.908,0.052c0.932,0.188,1.74,0.56,2.439,1.1c0.701,0.54,1.271,1.19,1.711,1.96
	c0.439,0.771,0.771,1.592,0.98,2.48C342.61,302.271,342.709,303.16,342.709,304.05z M339.02,288.96c0-1.271-0.311-2.55-0.939-3.818
	c-0.629-1.271-1.549-2.16-2.75-2.672c-0.189-0.06-0.379-0.13-0.59-0.189c-0.209-0.061-0.359-0.1-0.449-0.1h-6.48v13.561h6.41
	c1.352,0,2.49-0.7,3.42-2.1C338.549,292.24,339.02,290.681,339.02,288.96z M342.51,304.05c0-1.59-0.359-3.119-1.08-4.58
	c-0.721-1.46-1.818-2.52-3.311-3.148c-0.23-0.062-0.449-0.131-0.66-0.19c-0.209-0.059-0.359-0.06-0.449,0h-9.201v13.56
	c0,0.57,0.223,1.102,0.66,1.58c0.441,0.48,0.82,0.722,1.15,0.722h7.67c0.09,0,0.311-0.062,0.66-0.19
	c0.35-0.13,0.641-0.25,0.871-0.38c0.697-0.319,1.277-0.778,1.738-1.38s0.842-1.261,1.119-1.96c0.281-0.7,0.49-1.399,0.631-2.101
	C342.44,305.26,342.51,304.62,342.51,304.05z"/>
<path fill="#FFFFFF" stroke="#FFFFFF" stroke-miterlimit="10" d="M370.68,312.271h-2.51c-0.51-1.721-1.031-3.439-1.57-5.16
	c-0.529-1.719-1.01-3.439-1.43-5.159c-0.051-0.25-0.17-0.511-0.381-0.761c-0.209-0.25-0.439-0.489-0.699-0.721
	c-0.26-0.22-0.51-0.408-0.77-0.568c-0.262-0.16-0.432-0.24-0.521-0.24h-7.951l-3.629,12.609h-0.211l8.51-30.379h2.58L370.68,312.271
	z M364.469,299.37l-4.738-16.91l-4.881,16.91H364.469z"/>
<path fill="#FFFFFF" stroke="#FFFFFF" stroke-miterlimit="10" d="M396.51,312.271H379.29v-30.379h2.58V309.5
	c0,0.51,0.281,1.05,0.84,1.62c0.561,0.568,0.98,0.859,1.25,0.859h12.551V312.271L396.51,312.271z"/>
<path fill="#FFFFFF" stroke="#FFFFFF" stroke-miterlimit="10" d="M424.26,312.271H407.04v-30.379h2.58V309.5
	c0,0.51,0.281,1.05,0.84,1.62c0.561,0.568,0.98,0.859,1.26,0.859h12.551v0.289h-0.01V312.271z"/>
<path fill="#FFFFFF" stroke="#FFFFFF" stroke-miterlimit="10" d="M449.1,284.562c-0.09-0.57-0.369-1.131-0.84-1.67
	c-0.471-0.541-0.881-0.812-1.26-0.812h-12.691v14.71h7.812c0.18,0,0.41-0.102,0.66-0.29c0.26-0.188,0.5-0.431,0.729-0.722
	c0.23-0.288,0.42-0.59,0.561-0.908c0.141-0.32,0.189-0.602,0.141-0.86v2.96h-8.09c-0.23,0-0.59,0.21-1.08,0.62
	c-0.49,0.42-0.73,0.88-0.73,1.392v13.09H447c0.139,0,0.34-0.08,0.59-0.24s0.5-0.37,0.73-0.62c0.229-0.25,0.42-0.56,0.559-0.91
	c0.143-0.35,0.211-0.72,0.211-1.1v3.06h-17.359v-30.38h17.357v2.681H449.1L449.1,284.562z"/>
<path fill="#FFFFFF" stroke="#FFFFFF" stroke-miterlimit="10" d="M476.709,282.08h-7.039c-0.42,0-0.9,0.319-1.43,0.96
	c-0.541,0.641-0.801,1.311-0.801,2.01v27.23h-2.58v-27.23c0-0.699-0.262-1.369-0.771-2.01s-1.02-0.96-1.527-0.96l-6.973-0.101
	L476.709,282.08z M455.581,281.979h21.059v0.101h-21.059V281.979z"/>
<path fill="#FFFFFF" stroke="#FFFFFF" stroke-miterlimit="10" d="M344.86,352.108c0,1.852-0.551,3.5-1.641,4.972
	c-1.09,1.46-2.5,2.358-4.221,2.67c-0.09,0-0.199,0.03-0.309,0.09c-0.121,0.062-0.223,0.101-0.312,0.101h-6.209
	c-0.09,0-0.201-0.029-0.311-0.101c-0.119-0.06-0.221-0.09-0.311-0.09c-0.42-0.069-0.881-0.21-1.391-0.43
	c-0.51-0.222-1.021-0.54-1.529-0.962c-0.51-0.42-0.99-0.908-1.43-1.479c-0.441-0.568-0.801-1.238-1.08-2.01
	c-0.09-0.189-0.191-0.54-0.281-1.05c-0.09-0.511-0.139-0.83-0.139-0.95v-0.86h0.068l0.07,0.091c0.09,1.021,0.26,1.909,0.49,2.67
	c0.279,0.891,0.84,1.771,1.67,2.631c0.84,0.859,1.58,1.42,2.229,1.67c0.23,0.13,0.529,0.25,0.91,0.38
	c0.369,0.13,0.602,0.19,0.699,0.19h5.791c0.09,0,0.16-0.031,0.209-0.102c0.051-0.061,0.121-0.102,0.211-0.102
	c0.32,0,0.68-0.158,1.08-0.479c0.389-0.318,0.779-0.72,1.15-1.189c0.369-0.479,0.699-0.989,0.979-1.529s0.459-1.07,0.561-1.58
	c0.09-0.38,0.18-0.88,0.238-1.48c0.07-0.608,0.111-0.97,0.111-1.1s-0.041-0.48-0.111-1.05c-0.068-0.57-0.148-1.08-0.238-1.53
	c0-0.061-0.021-0.141-0.07-0.24c-0.049-0.09-0.07-0.209-0.07-0.33c-0.049-0.06-0.1-0.17-0.17-0.33
	c-0.068-0.16-0.129-0.299-0.17-0.43c-0.09-0.38-0.289-0.779-0.59-1.189c-0.299-0.409-0.641-0.811-1.01-1.189s-0.762-0.68-1.15-0.91
	c-0.389-0.22-0.709-0.33-0.939-0.33h-3.561c-0.879,0-1.77-0.158-2.648-0.479c-0.881-0.32-1.689-0.79-2.41-1.43
	c-0.721-0.631-1.301-1.42-1.74-2.342c-0.439-0.92-0.66-2.02-0.66-3.3c0-1.778,0.49-3.311,1.461-4.58
	c0.98-1.27,2.209-2.13,3.699-2.579c0.561-0.189,1.09-0.289,1.6-0.289c0.512,0,1.021,0,1.531,0c0.6,0,1.27,0.028,1.99,0.09
	c0.719,0.06,1.449,0.25,2.199,0.568c0.738,0.32,1.439,0.83,2.09,1.53c0.648,0.699,1.211,1.72,1.67,3.062
	c0.09,0.188,0.148,0.448,0.17,0.76c0.02,0.31,0.061,0.609,0.1,0.859h-0.277c0-0.641-0.07-1.15-0.211-1.529
	c-0.471-1.211-0.99-2.15-1.57-2.82s-1.18-1.16-1.779-1.48c-0.6-0.319-1.221-0.528-1.85-0.619c-0.631-0.101-1.24-0.141-1.852-0.141
	c-0.09,0-0.381,0-0.869,0c-0.49,0-0.9,0.061-1.221,0.189c-1.391,0.511-2.391,1.451-3,2.82s-0.91,2.75-0.91,4.159
	c0,1.08,0.271,2.341,0.801,3.771c0.541,1.431,1.408,2.439,2.619,3.011c0.092,0.06,0.23,0.14,0.42,0.239
	c0.189,0.101,0.33,0.141,0.422,0.141h3.697c0.701,0,1.461,0.16,2.303,0.48c0.84,0.318,1.629,0.799,2.369,1.43
	c0.738,0.63,1.369,1.47,1.881,2.48C344.6,349.59,344.86,350.771,344.86,352.108z"/>
<path fill="#FFFFFF" stroke="#FFFFFF" stroke-miterlimit="10" d="M372.02,329.75h-7.039c-0.422,0-0.9,0.319-1.432,0.96
	s-0.799,1.311-0.799,2.01v27.23h-2.58v-27.23c0-0.699-0.26-1.369-0.77-2.01c-0.512-0.641-1.021-0.96-1.531-0.96l-6.969-0.09
	L372.02,329.75z M350.889,329.66h21.062v0.09h-21.062V329.66z"/>
<path fill="#FFFFFF" stroke="#FFFFFF" stroke-miterlimit="10" d="M397.87,349.72c0,0.131-0.061,0.54-0.18,1.24
	s-0.24,1.24-0.381,1.62c-0.51,1.46-1.131,2.688-1.85,3.68c-0.721,0.991-1.5,1.771-2.34,2.341c-0.84,0.569-1.691,0.989-2.541,1.239
	c-0.859,0.25-1.689,0.38-2.48,0.38c-0.789,0-1.617-0.13-2.469-0.38c-0.861-0.25-1.711-0.67-2.551-1.239
	c-0.84-0.57-1.629-1.351-2.369-2.341c-0.74-0.989-1.35-2.21-1.811-3.68c-0.141-0.38-0.271-0.88-0.381-1.479
	c-0.119-0.601-0.17-1.131-0.17-1.58v-19.58h2.721v20.25c0,0.131,0.051,0.479,0.141,1.051c0.09,0.57,0.18,1.05,0.279,1.43
	c0.6,2.55,1.49,4.4,2.648,5.54c1.16,1.149,2.42,1.72,3.771,1.72c1.301,0,2.471-0.51,3.52-1.529c1.051-1.021,1.961-2.739,2.75-5.159
	c0.143-0.382,0.271-0.94,0.381-1.67c0.119-0.73,0.17-1.16,0.17-1.291v-20.351h3.141V349.72L397.87,349.72z"/>
<path fill="#FFFFFF" stroke="#FFFFFF" stroke-miterlimit="10" d="M426.54,344.75c0,2.74-0.59,5.479-1.779,8.21
	c-1.18,2.74-3.131,4.811-5.818,6.21c-0.191,0.07-0.602,0.21-1.25,0.431c-0.65,0.221-1.143,0.34-1.461,0.34h-8.721v-30.379h8.721
	c0.18,0,0.439,0.049,0.77,0.14c0.32,0.1,0.65,0.19,0.98,0.29c0.318,0.09,0.721,0.24,1.189,0.43c1.299,0.7,2.43,1.59,3.379,2.67
	c0.951,1.08,1.721,2.26,2.301,3.54s1.012,2.61,1.289,4.011C426.411,342.05,426.54,343.41,426.54,344.75z M426.34,344.75
	c0-1.34-0.16-2.75-0.49-4.25s-0.83-2.91-1.5-4.25c-0.68-1.34-1.541-2.53-2.58-3.58c-1.051-1.05-2.289-1.83-3.729-2.34
	c-0.791-0.25-1.51-0.399-2.16-0.431c-0.648-0.029-1.301-0.051-1.951-0.051c-0.139,0-0.5,0-1.08,0c-0.578,0-1.039,0.03-1.357,0.102
	c-0.23,0-0.521,0.22-0.871,0.67s-0.521,0.83-0.521,1.148v27.892h6.143c0.09,0,0.41-0.062,0.938-0.188
	c0.531-0.132,0.941-0.25,1.223-0.382c1.398-0.51,2.59-1.29,3.59-2.34s1.82-2.24,2.479-3.58c0.65-1.34,1.129-2.739,1.432-4.198
	C426.18,347.49,426.34,346.09,426.34,344.75z"/>
<path fill="#FFFFFF" stroke="#FFFFFF" stroke-miterlimit="10" d="M468.85,344.75c0,2.101-0.301,4.08-0.908,5.92
	c-0.611,1.851-1.41,3.46-2.41,4.82c-1,1.368-2.17,2.448-3.521,3.25c-1.35,0.8-2.77,1.198-4.25,1.198
	c-1.541,0-2.971-0.398-4.318-1.198c-1.352-0.802-2.512-1.892-3.49-3.29c-0.98-1.4-1.75-3.021-2.34-4.87
	c-0.592-1.851-0.871-3.79-0.871-5.83c0-2.101,0.291-4.069,0.871-5.92s1.379-3.45,2.408-4.82c1.021-1.368,2.199-2.448,3.521-3.25
	c1.33-0.8,2.729-1.188,4.219-1.188c1.531,0,2.973,0.41,4.32,1.24c1.35,0.83,2.52,1.93,3.52,3.299c1,1.371,1.791,2.979,2.371,4.82
	C468.551,340.771,468.85,342.71,468.85,344.75z M468.709,344.75c0-2.04-0.289-3.96-0.869-5.78c-0.58-1.81-1.371-3.408-2.371-4.779
	c-1-1.369-2.16-2.449-3.488-3.25c-1.33-0.789-2.73-1.189-4.221-1.189c-1.492,0-2.891,0.4-4.221,1.189
	c-1.32,0.801-2.48,1.859-3.449,3.201c-0.979,1.34-1.75,2.908-2.34,4.729c-0.58,1.818-0.871,3.738-0.871,5.779
	c0,2.039,0.281,3.959,0.84,5.779c0.562,1.82,1.33,3.41,2.301,4.78s2.131,2.47,3.449,3.3c1.33,0.83,2.75,1.24,4.291,1.24
	c1.439,0,2.82-0.38,4.15-1.15c1.33-0.77,2.49-1.83,3.49-3.199s1.799-2.961,2.408-4.779
	C468.401,348.812,468.709,346.851,468.709,344.75z"/>
<path fill="#FFFFFF" stroke="#FFFFFF" stroke-miterlimit="10" d="M457.76,360.319c-1.6,0-3.109-0.42-4.51-1.25
	c-1.391-0.819-2.6-1.961-3.6-3.399c-0.99-1.42-1.803-3.101-2.393-4.97c-0.59-1.87-0.889-3.87-0.889-5.94
	c0-2.13,0.299-4.159,0.889-6.04c0.59-1.88,1.42-3.539,2.461-4.938c1.039-1.4,2.262-2.521,3.629-3.341
	c2.803-1.681,6.172-1.649,8.932,0.051c1.381,0.85,2.609,1.99,3.631,3.39c1.02,1.4,1.83,3.06,2.43,4.931
	c0.59,1.879,0.891,3.879,0.891,5.939c0,2.13-0.311,4.16-0.922,6.04c-0.619,1.88-1.438,3.54-2.459,4.931
	c-1.02,1.399-2.25,2.529-3.631,3.351C460.799,359.899,459.309,360.319,457.76,360.319z M457.76,330.13
	c-1.41,0-2.76,0.38-4.029,1.141c-1.279,0.771-2.4,1.811-3.342,3.101c-0.947,1.3-1.709,2.851-2.277,4.62
	c-0.57,1.77-0.852,3.68-0.852,5.67s0.279,3.9,0.82,5.67c0.539,1.77,1.299,3.34,2.25,4.67c0.938,1.32,2.07,2.4,3.34,3.2
	c2.439,1.521,5.439,1.59,8.049,0.09c1.271-0.729,2.41-1.78,3.371-3.101c0.969-1.329,1.76-2.899,2.352-4.67
	c0.59-1.771,0.889-3.709,0.889-5.761c0-1.989-0.289-3.89-0.85-5.67c-0.57-1.76-1.342-3.33-2.32-4.67
	c-0.959-1.319-2.102-2.38-3.379-3.149C460.52,330.51,459.17,330.13,457.76,330.13z"/>
<path fill="#FFFFFF" stroke="#FFFFFF" stroke-miterlimit="10" d="M345.219,235.05l-8.719,18.342l-8.65-18.342h-2.65v30.381h2.58
	v-21.361l6.561,13.939l-3.42,7.33l3.521-7.12l1.879,4l-1.49,3.15l0.27,0.13l1.393-2.93l1.379,2.93l0.27-0.13l-1.479-3.15l1.871-3.95
	c0.229,0.48,0.469,0.95,0.688,1.432c0.881,1.908,1.723,3.689,2.512,5.35c0.09,0.131,0.211,0.19,0.35,0.19l-3.439-7.212l6.58-13.889
	v21.289h2.58v-30.38L345.219,235.05L345.219,235.05z M345.219,235.438v8l-6.738,14.24l-1.9-3.99L345.219,235.438z M338.37,257.92
	l-1.869,3.938l-1.881-3.988l1.891-3.811C337.139,255.33,337.75,256.62,338.37,257.92z M327.86,238.108
	c0.051-0.438,0.189-0.67,0.42-0.67c0.318,0,0.568,0.222,0.75,0.67c1.221,2.61,2.51,5.33,3.859,8.172
	c1.352,2.828,2.512,5.3,3.49,7.398l-1.85,3.971l-6.723-14.291v-4.39C327.79,238.84,327.809,238.562,327.86,238.108z"/>
<path fill="#FFFFFF" stroke="#FFFFFF" stroke-miterlimit="10" d="M477.639,235.05l-8.709,18.342l-8.648-18.342h-2.65v30.381h2.58
	V244.22l6.549,13.812l-3.41,7.31l3.512-7.09l1.891,3.99l-1.49,3.14l0.271,0.13l1.379-2.92l1.381,2.92l0.271-0.13l-1.49-3.14
	l1.879-3.95c0.229,0.479,0.461,0.94,0.689,1.42c0.881,1.91,1.721,3.69,2.512,5.351c0.09,0.129,0.209,0.189,0.35,0.189l-3.43-7.2
	l6.568-13.829v21.219h2.58v-30.379h-2.58v-0.012H477.639z M477.639,235.438v8.07l-6.738,14.18l-1.91-4.01L477.639,235.438z
	 M470.79,257.931l-1.879,3.949l-1.891-3.979l1.898-3.84C469.559,255.33,470.17,256.63,470.79,257.931z M460.28,238.108
	c0.041-0.438,0.189-0.67,0.42-0.67c0.32,0,0.57,0.222,0.75,0.67c1.221,2.61,2.51,5.33,3.859,8.172c1.352,2.828,2.512,5.3,3.48,7.398
	l-1.861,3.99l-6.709-14.16v-4.55C460.209,238.84,460.231,238.562,460.28,238.108z"/>
<rect x="444.967" y="328.929" transform="matrix(0.7073 0.7069 -0.7069 0.7073 364.2733 -218.8945)" fill="#FFFFFF" stroke="#FFFFFF" stroke-miterlimit="10" width="2.971" height="2.97"/>
<path fill="#FFFFFF" stroke="#FFFFFF" stroke-miterlimit="10" d="M446.45,332.688l-2.279-2.278l2.279-2.28l2.281,2.28
	L446.45,332.688z M444.53,330.41l1.93,1.93l1.93-1.93l-1.93-1.931L444.53,330.41z"/>
<rect x="452.435" y="323.687" transform="matrix(0.7074 0.7068 -0.7068 0.7074 362.6257 -225.687)" fill="#FFFFFF" stroke="#FFFFFF" stroke-miterlimit="10" width="2.971" height="2.971"/>
<path fill="#FFFFFF" stroke="#FFFFFF" stroke-miterlimit="10" d="M453.92,327.46l-2.281-2.279l2.281-2.279l2.279,2.279
	L453.92,327.46z M451.991,325.181l1.93,1.93l1.92-1.93l-1.92-1.931L451.991,325.181z"/>
<rect x="460.125" y="323.698" transform="matrix(0.7071 0.7071 -0.7071 0.7071 365.1416 -231.1636)" fill="#FFFFFF" stroke="#FFFFFF" stroke-miterlimit="10" width="2.969" height="2.97"/>
<path fill="#FFFFFF" stroke="#FFFFFF" stroke-miterlimit="10" d="M461.629,327.46l-2.279-2.279l2.279-2.279l2.281,2.279
	L461.629,327.46z M459.709,325.181l1.92,1.93l1.93-1.93l-1.93-1.931L459.709,325.181z"/>
<rect x="467.737" y="328.929" transform="matrix(0.7068 0.7074 -0.7074 0.7068 371.3325 -235.0599)" fill="#FFFFFF" stroke="#FFFFFF" stroke-miterlimit="10" width="2.971" height="2.97"/>
<path fill="#FFFFFF" stroke="#FFFFFF" stroke-miterlimit="10" d="M469.25,332.688l-2.281-2.278l2.281-2.28l2.279,2.28
	L469.25,332.688z M467.331,330.41l1.93,1.93l1.92-1.93l-1.92-1.931L467.331,330.41z"/>
</svg>
