<?xml version="1.0" encoding="utf-8"?>
<!-- Generator: Adobe Illustrator 15.0.0, SVG Export Plug-In  -->
<!DOCTYPE svg PUBLIC "-//W3C//DTD SVG 1.1//EN" "http://www.w3.org/Graphics/SVG/1.1/DTD/svg11.dtd" [
	<!ENTITY ns_flows "http://ns.adobe.com/Flows/1.0/">
]>
<svg version="1.1"
	 xmlns="http://www.w3.org/2000/svg" xmlns:xlink="http://www.w3.org/1999/xlink" xmlns:a="http://ns.adobe.com/AdobeSVGViewerExtensions/3.0/"
	 x="0px" y="0px" width="55px" height="55px" viewBox="0 0 55 55" overflow="visible" enable-background="new 0 0 55 55"
	 xml:space="preserve">
<defs>
</defs>
<g>
	<path fill="#807F81" d="M31.4,44c-0.6,0-1.2-0.4-1.5-0.9c-0.4-0.7-0.3-1.7,0.2-2.6c1.9-3,0.4-6.6-0.2-8.1c-0.2-0.5-0.3-0.7-0.2-0.8
		c0,0,0.1-0.1,0.1-0.1c0,0,0.1,0,0.2,0.1c2.6,1.9,5,8.3,2.9,11.5C32.5,43.7,31.9,44,31.4,44L31.4,44z"/>
	<path fill="#FFFFFF" d="M29.8,31.6C29.8,31.6,29.9,31.6,29.8,31.6c2.6,1.9,5,8.3,3,11.4c-0.4,0.6-0.9,0.8-1.4,0.8
		c-1.2,0-2.3-1.5-1.2-3.4C32.6,36.5,29.5,31.6,29.8,31.6 M29.8,31.4c-0.1,0-0.1,0-0.2,0.1c-0.1,0.1,0,0.3,0.2,0.9c0.6,1.5,2,5,0.2,8
		c-0.6,1-0.7,2-0.3,2.8c0.3,0.6,0.9,1,1.6,1c0.6,0,1.2-0.3,1.6-0.9c2.1-3.2-0.3-9.7-2.9-11.7C30,31.5,29.9,31.4,29.8,31.4L29.8,31.4
		z"/>
</g>
<g>
	<path fill="#807F81" d="M37.1,43c-0.1,0-0.2-0.1-0.4-0.4c-0.3-0.5-0.6-0.7-1-0.7c-0.3,0-0.6,0.2-0.9,0.4c-0.2,0.1-0.3,0.2-0.4,0.2
		c0,0-0.1,0-0.1-0.1c-0.1-0.1-0.1-0.4,0.1-1.3c0.8-3.3-1.5-7.3-1.5-7.3c0,0,0-0.1,0-0.1c0,0,0,0,0.1,0c0,0,0,0,0.1,0
		c2.2,1.9,4.5,8.4,4.2,9.2C37.2,43,37.1,43,37.1,43L37.1,43z"/>
	<path fill="#FFFFFF" d="M33,33.8c2.4,2.1,4.6,9.1,4.1,9.1c-0.1,0-0.2-0.1-0.3-0.3c-0.4-0.5-0.7-0.7-1-0.7c-0.6,0-1.1,0.6-1.3,0.6
		c-0.2,0-0.2-0.3,0-1.3C35.3,37.8,33,33.8,33,33.8 M33,33.6c0,0-0.1,0-0.1,0c-0.1,0.1-0.1,0.2,0,0.3c0,0,2.3,4,1.5,7.2
		c-0.2,1-0.2,1.3-0.1,1.4c0.1,0.1,0.1,0.1,0.2,0.1c0.1,0,0.3-0.1,0.5-0.2c0.2-0.2,0.5-0.3,0.8-0.3c0.3,0,0.6,0.2,0.9,0.6
		c0.2,0.3,0.3,0.4,0.5,0.4c0.1,0,0.2,0,0.2-0.2c0.3-0.8-1.9-7.3-4.2-9.3C33,33.7,33,33.6,33,33.6L33,33.6z"/>
</g>
<g>
	<path fill="#807F81" d="M40,33.6c-3,0-7-1.7-8.4-3.7c0,0-0.1-0.1-0.1-0.2c0,0,0.1-0.1,0.1-0.1c0.1,0,0.3,0.1,0.7,0.2
		c1,0.4,2.7,1.1,4.7,1.1c1.3,0,2.4-0.3,3.4-0.9c0.5-0.3,1.1-0.5,1.6-0.5c0.9,0,1.7,0.5,1.9,1.3c0.2,0.7-0.1,1.5-0.8,1.9
		C42.3,33.4,41.3,33.6,40,33.6z"/>
	<path fill="#FFFFFF" d="M42.1,29.7c1.7,0,2.6,2,1,3.1c-0.8,0.5-1.9,0.8-3,0.8c-3.2,0-7-1.8-8.4-3.6c-0.1-0.1-0.1-0.1,0-0.1
		c0.3,0,2.7,1.3,5.4,1.3c1.1,0,2.3-0.2,3.4-0.9C41.1,29.9,41.6,29.7,42.1,29.7 M42.1,29.5L42.1,29.5c-0.5,0-1.1,0.2-1.7,0.5
		c-1,0.6-2.1,0.9-3.3,0.9c-1.9,0-3.7-0.7-4.7-1.1c-0.4-0.2-0.6-0.2-0.7-0.2c-0.1,0-0.2,0.1-0.2,0.1c-0.1,0.1,0,0.3,0.1,0.3
		c1.5,2,5.4,3.7,8.5,3.7c1.3,0,2.3-0.3,3.1-0.8c0.8-0.5,1.1-1.3,0.9-2.1C43.8,30.1,43,29.5,42.1,29.5L42.1,29.5z"/>
</g>
<g>
	<path fill="#807F81" d="M42.8,37.2c-1.2,0-7.1-2-9-4.2c0,0,0-0.1,0-0.1c0,0,0,0,0.1,0c0,0,0,0,0.1,0c0,0,2.9,1.7,5.8,1.7
		c0.5,0,1.1-0.1,1.5-0.2c0.5-0.1,0.8-0.1,1-0.1c0.1,0,0.3,0,0.3,0.1c0.1,0.1,0,0.3-0.2,0.5c-0.2,0.3-0.4,0.7-0.3,1.1
		c0.1,0.3,0.3,0.6,0.7,0.8c0.3,0.2,0.4,0.3,0.4,0.4C43,37.2,42.8,37.2,42.8,37.2z"/>
	<path fill="#FFFFFF" d="M33.8,32.9c0,0,2.9,1.7,5.8,1.7c0.5,0,1-0.1,1.5-0.2c0.5-0.1,0.8-0.1,1-0.1c1,0-1.5,1.2,0.4,2.5
		c0.4,0.3,0.4,0.4,0.1,0.4C41.6,37.1,35.7,35.1,33.8,32.9 M33.8,32.7c-0.1,0-0.1,0-0.2,0.1c-0.1,0.1-0.1,0.2,0,0.3
		c1.9,2.2,7.9,4.3,9.1,4.3c0.2,0,0.3-0.1,0.4-0.2c0.1-0.2-0.2-0.4-0.4-0.5c-0.4-0.2-0.6-0.5-0.6-0.7c-0.1-0.4,0.2-0.7,0.3-1
		c0.2-0.2,0.3-0.4,0.2-0.6c-0.1-0.2-0.3-0.2-0.4-0.2c-0.2,0-0.5,0-1.1,0.1c-0.5,0.1-1,0.2-1.5,0.2c-2.8,0-5.7-1.6-5.7-1.7
		C33.9,32.8,33.9,32.7,33.8,32.7L33.8,32.7z"/>
</g>
<g>
	<path fill="#807F81" d="M42,42.1c0,0-1.2-0.4-2.2-0.4c-0.5,0-0.9,0.1-1.1,0.2c0,0,0,0,0,0c0,0,0,0-0.1,0c0,0,0-0.1,0-0.1
		c0.2-1.4-2.3-5.6-2.4-5.6c0,0,0-0.1,0-0.1c0,0,0,0,0.1,0c0,0,0,0,0.1,0c0,0,3.9,2.4,5.4,2.4c0.1,0,0.1,0,0.2,0c0,0,0,0,0,0
		c0,0,0.1,0,0.1,0c0,0,0,0.1,0,0.1c-0.6,1,0.1,3.3,0.1,3.4C42.1,42,42.1,42.1,42,42.1C42.1,42.1,42.1,42.1,42,42.1
		C42,42.1,42,42.1,42,42.1z"/>
	<path fill="#FFFFFF" d="M36.2,36.2c0,0,3.9,2.4,5.5,2.4c0.1,0,0.1,0,0.2,0C41.3,39.7,42,42,42,42s-1.2-0.4-2.2-0.4
		c-0.4,0-0.9,0.1-1.2,0.2C38.8,40.5,36.2,36.2,36.2,36.2 M41.9,38.6L41.9,38.6 M36.2,36c-0.1,0-0.1,0-0.1,0.1
		c-0.1,0.1-0.1,0.2,0,0.2c0.7,1.2,2.5,4.4,2.3,5.5c0,0.1,0,0.2,0.1,0.2c0,0,0.1,0,0.1,0c0,0,0.1,0,0.1,0c0.3-0.1,0.6-0.2,1.1-0.2
		c1,0,2.2,0.3,2.2,0.3c0,0,0,0,0.1,0c0.1,0,0.1,0,0.1-0.1c0.1-0.1,0.1-0.1,0.1-0.2c0,0-0.7-2.3-0.1-3.3c0,0,0-0.1,0-0.1
		c0-0.1-0.1-0.2-0.2-0.2h0c0,0,0,0,0,0c0,0,0,0,0,0c0,0,0,0,0,0h0c0,0,0,0,0,0c-0.1,0-0.1,0-0.2,0c-1.5,0-5.3-2.3-5.4-2.4
		C36.3,36,36.3,36,36.2,36L36.2,36z"/>
</g>
<g>
	<path fill="#807F81" d="M11.9,29.7c-0.9,0-1.9-0.6-2.7-1.5c-0.8-1-1.1-2.1-0.9-3.2c0.6-3,3.2-4.3,5.5-4.3c1.3,0,2.6,0.4,3.6,1.2
		c0,0,0,0,0,0.1c0,0,0,0.1,0,0.1L16.6,23c0,0,0,0-0.1,0c0,0,0,0,0,0c-0.5-0.2-0.9-0.3-1.4-0.3c-1.3,0-2.4,0.6-2.9,1.6
		c-0.6,1.1,0.2,1.7,0.2,1.7c0,0,0,0,0,0c0.5,0,1.1,0.4,1.4,1c0.2,0.4,0.4,1.1-0.3,2C13.1,29.5,12.6,29.7,11.9,29.7z"/>
	<path fill="#FFFFFF" d="M13.9,20.9c1.2,0,2.5,0.4,3.5,1.1L16.5,23c-0.5-0.2-1-0.3-1.5-0.3c-1.3,0-2.5,0.7-3,1.7
		c-0.6,1.2,0.2,1.8,0.2,1.8c0,0,0.1,0,0.1,0c0.9,0,2.2,1.3,1,2.8c-0.4,0.5-0.9,0.7-1.4,0.7c-1.8,0-3.9-2.2-3.5-4.5
		C9.1,22.4,11.4,20.9,13.9,20.9 M13.9,20.7c-2.3,0-5,1.4-5.6,4.4c-0.2,1.1,0.1,2.3,0.9,3.2c0.8,0.9,1.8,1.5,2.8,1.5
		c0.6,0,1.2-0.3,1.6-0.8c0.7-0.9,0.5-1.7,0.3-2.1c-0.3-0.6-0.9-1-1.5-1c0,0,0,0,0,0c-0.2-0.1-0.6-0.7-0.1-1.6
		c0.5-0.9,1.6-1.5,2.8-1.5c0.5,0,1,0.1,1.4,0.3c0,0,0.1,0,0.1,0c0.1,0,0.1,0,0.1-0.1l0.9-0.9c0,0,0.1-0.1,0.1-0.2
		c0-0.1,0-0.1-0.1-0.1C16.5,21.1,15.2,20.7,13.9,20.7L13.9,20.7z"/>
</g>
<g>
	<path fill="#807F81" d="M19.7,35.5c-0.1,0-0.2-0.1-0.2-0.1c-0.1-0.2,0-0.5,0-0.6c1.6-1.9,3-7.4,0-11.3c0,0,0-0.1,0-0.1l0.8-0.8
		c0,0,0,0,0.1,0c0,0,0,0,0,0c0,0,0.1,0,0.1,0c1.4,2,1.9,3.8,2.3,5.5c0.4,1.4,0.7,2.8,1.6,4c0,0,0,0,0,0.1c0,0,0,0,0,0.1
		c-0.2,0.1-0.4,0.2-0.6,0.2l0,0c-0.5,0-0.9-0.5-1.1-0.7c-0.2,0.6-0.7,2.4-2,3.4C20.3,35.3,20,35.5,19.7,35.5z"/>
	<path fill="#FFFFFF" d="M20.4,22.6c2.6,3.6,2,6.8,3.9,9.4c-0.2,0.1-0.4,0.2-0.5,0.2c-0.7,0-1.2-0.9-1.2-0.9s-0.5,2.4-2,3.6
		c-0.5,0.4-0.8,0.5-0.9,0.5c-0.3,0-0.1-0.6-0.1-0.6c1.6-1.8,3.1-7.4,0-11.4L20.4,22.6 M20.4,22.4c-0.1,0-0.1,0-0.1,0.1l-0.8,0.8
		c-0.1,0.1-0.1,0.2,0,0.3c3,3.9,1.6,9.4,0,11.2c0,0,0,0,0,0.1c0,0.1-0.2,0.5,0,0.7c0.1,0.1,0.2,0.2,0.3,0.2c0.1,0,0.4-0.1,1.1-0.6
		c1.2-0.9,1.7-2.5,2-3.3c0.2,0.3,0.6,0.6,1.1,0.6c0.2,0,0.4-0.1,0.6-0.2c0,0,0.1-0.1,0.1-0.1c0-0.1,0-0.1,0-0.2
		c-0.9-1.2-1.2-2.5-1.6-4c-0.4-1.6-0.9-3.5-2.3-5.5C20.6,22.4,20.5,22.4,20.4,22.4C20.4,22.4,20.4,22.4,20.4,22.4L20.4,22.4z"/>
</g>
<g>
	<path fill="#807F81" d="M1.9,21.8c-0.3,0-0.5-0.3-0.7-0.7c-0.3-1,0.1-2.9,1.7-3.9c-0.4-0.1-0.9-0.4-1.1-0.9
		c-0.1-0.4,0.1-0.9,0.6-1.4C3.2,14.3,4.6,14,6.4,14c2.8,0,5.7,0.9,7.9,2.3c0.7,0.5,1,0.8,0.9,1.1c-0.1,0.2-0.5,0.3-0.7,0.3
		c-0.2-0.1-1.2-0.4-2.9-0.4C9,17.2,5.3,18,1.9,21.8C2,21.8,1.9,21.8,1.9,21.8z"/>
	<path fill="#FFFFFF" d="M6.4,14.1c2.4,0,5.4,0.6,7.8,2.3c1.6,1.1,0.5,1.2,0.3,1.2c0,0,0,0,0,0c-0.1-0.1-1.2-0.4-2.8-0.4
		c-2.5,0-6.3,0.8-9.6,4.6c0,0,0,0,0,0c-1,0-1.1-3.3,1.3-4.6C2.6,17,1.1,16.4,2.6,15C3.2,14.4,4.6,14.1,6.4,14.1 M6.4,13.9
		c-1.8,0-3.2,0.4-3.9,1c-0.6,0.5-0.8,1-0.7,1.5c0.1,0.4,0.6,0.7,0.9,0.9c-1.5,1.1-1.8,2.9-1.6,3.9c0.1,0.5,0.4,0.8,0.8,0.8
		c0.1,0,0.1,0,0.2-0.1c3.2-3.8,6.9-4.5,9.5-4.5c1.6,0,2.7,0.3,2.7,0.4c0,0,0.1,0,0.1,0l0.1,0c0.3,0,0.7-0.1,0.8-0.4
		c0.1-0.3-0.2-0.7-0.9-1.2C12.1,14.7,9.1,13.9,6.4,13.9L6.4,13.9z"/>
</g>
<g>
	<path fill="#807F81" d="M5.4,44.2c-2.4,0-3.9-1.4-4.4-2c-0.7-0.8-1-1.6-0.9-2.2c0-0.2,0.1-0.4,0.5-0.4c0.3,0,0.8,0.1,1.3,0.3
		c0.5,0.1,1,0.3,1.4,0.3c0.1,0,0.2,0,0.2,0c-0.9-0.6-1.2-1.3-1.2-1.9c0-0.5,0.2-0.8,0.6-1c0.4-0.2,0.8-0.3,1.1-0.3
		c0.5,0,0.8,0.2,1.2,0.5c0.4,0.3,0.8,0.5,1.5,0.7c0.5,0.1,0.9,0.2,1.4,0.2c1,0,1.9-0.4,3-1C10,36.9,10,35.8,10,35.4
		c0-0.2,0.3-0.2,0.4-0.2c0.1,0,0.3,0,0.5,0c0.3,0,0.7,0.1,1,0.1c1.2,0,2-0.3,2.6-1.1c1.4-1.9,3.1-4.9,3.3-6.3
		c0.1-0.1,0.2-0.2,0.3-0.2c0,0,0.1,0,0.1,0c0.1,0.1,0.1,0.1,0.1,0.3c0,0.9-0.3,1.6-1.4,4.6c-1.2,3.1-3.8,9.7-9.6,11.3
		C6.6,44.1,6,44.2,5.4,44.2L5.4,44.2z"/>
	<path fill="#FFFFFF" d="M18,27.8c0,0,0.1,0.1,0.1,0.2c0,0.8-0.3,1.6-1.4,4.5c-1.2,3.2-3.8,9.6-9.6,11.3c-0.6,0.2-1.2,0.2-1.7,0.2
		c-3.3,0-5.4-2.8-5.2-4.1c0-0.2,0.2-0.3,0.4-0.3c0.7,0,1.9,0.6,2.6,0.6c0.2,0,0.3,0,0.4-0.1c-1.5-0.9-1.5-2.4-0.7-2.8
		C3.5,37.1,3.8,37,4.1,37c0.9,0,1.2,0.8,2.7,1.2c0.5,0.1,1,0.2,1.4,0.2c1.2,0,2.1-0.4,3.3-1.1c-1.4-0.2-1.4-1.4-1.4-1.8
		c0-0.1,0.1-0.1,0.3-0.1c0.3,0,0.9,0.1,1.6,0.1c0.9,0,2-0.2,2.6-1.1c1.4-1.9,3.1-4.9,3.3-6.3C17.8,27.9,18,27.8,18,27.8 M18,27.6
		L18,27.6L18,27.6c-0.2,0-0.3,0.1-0.3,0.2c0,0,0,0.1,0,0.1c-0.2,1.4-1.8,4.3-3.2,6.3c-0.5,0.7-1.3,1-2.5,1c-0.4,0-0.7,0-1-0.1
		c-0.2,0-0.4,0-0.5,0c-0.1,0-0.2,0-0.3,0c-0.1,0-0.2,0.2-0.2,0.3c0,0.4,0,1.5,1.1,1.9c-1,0.6-1.8,0.9-2.7,0.9
		c-0.4,0-0.9-0.1-1.4-0.2c-0.7-0.2-1.1-0.5-1.5-0.7c-0.4-0.3-0.7-0.5-1.2-0.5c-0.3,0-0.7,0.1-1.2,0.3c-0.4,0.2-0.6,0.6-0.7,1.1
		c0,0.5,0.2,1.2,1,1.8c-0.4,0-0.8-0.2-1.3-0.3c-0.5-0.1-1-0.3-1.3-0.3c-0.5,0-0.6,0.3-0.6,0.5c-0.1,0.6,0.3,1.5,0.9,2.3
		c0.5,0.6,2,2,4.5,2c0.6,0,1.2-0.1,1.8-0.3c5.9-1.7,8.5-8.2,9.7-11.4c1.2-3,1.4-3.7,1.4-4.6c0-0.1,0-0.3-0.1-0.4
		C18.2,27.6,18.1,27.6,18,27.6L18,27.6L18,27.6z"/>
</g>
<g>
	<path fill="#807F81" d="M6.4,35.7c-1.4,0-4.2-1.8-4.8-5.3c-0.3,0.1-0.6,0.3-0.8,0.3c-0.2,0-0.3-0.1-0.4-0.2
		c-0.2-0.2-0.2-0.7-0.1-1.4l0.1-0.3c0.4-2,1.2-6.8,6.7-9.6c1.6-0.8,3.3-1.3,4.9-1.3c2.5,0,4.9,1,6.8,2.7c0,0,0,0,0,0.1
		c0,0,0,0.1,0,0.1l-0.9,0.9c0,0,0,0-0.1,0c0,0,0,0-0.1,0c-0.3-0.2-0.6-0.4-0.9-0.6c-1-0.6-2-0.8-3.2-0.8c-3.5,0-7,2.6-7.2,5.4
		c-0.1,1.3,0.5,2.8,1.6,4c1,1.1,2.4,1.7,3.6,1.7c0,0,0.1,0,0.1,0c0,0,0.1,0,0.1,0.1c0.2,0.6,0.1,1.2-0.2,1.6c-0.5,0.6-1.4,1-2.4,1
		c-1.2,0-2.3-0.4-3-1.2c0,0.8,0.3,1.2,0.6,1.6c0.3,0.4,0.5,0.7,0.2,1.1C6.9,35.7,6.7,35.7,6.4,35.7L6.4,35.7z"/>
	<path fill="#FFFFFF" d="M12,18c2.6,0,5,1.1,6.7,2.7l-0.9,0.9c-0.3-0.2-0.6-0.4-0.9-0.6c-1-0.6-2.1-0.9-3.3-0.9
		c-3.6,0-7.1,2.6-7.3,5.4c-0.2,2.7,2.4,5.8,5.3,5.8c0,0,0.1,0,0.1,0c0.5,1.6-1,2.4-2.6,2.4c-1.1,0-2.4-0.4-3.1-1.3
		c-0.2,1.8,1.3,2.2,0.7,3c-0.1,0.1-0.3,0.2-0.5,0.2c-1.3,0-4.2-1.6-4.7-5.4c-0.4,0.2-0.7,0.3-0.9,0.3c-0.4,0-0.6-0.4-0.4-1.4
		c0.3-1.8,0.9-6.9,6.7-9.9C8.8,18.4,10.5,18,12,18 M12,17.8V18V17.8c-1.7,0-3.4,0.4-5,1.3c-5.5,2.9-6.4,7.7-6.7,9.7l-0.1,0.3
		c-0.1,0.8-0.1,1.2,0.1,1.5c0.1,0.1,0.3,0.2,0.5,0.2c0.2,0,0.5-0.1,0.8-0.2c0.6,3.7,3.5,5.3,4.9,5.3c0.3,0,0.5-0.1,0.7-0.3
		c0.4-0.5,0.1-0.8-0.2-1.2C6.7,34,6.5,33.6,6.4,33c0.7,0.6,1.8,1,2.9,1c1.1,0,2-0.4,2.5-1c0.4-0.5,0.4-1.1,0.2-1.7
		c0-0.1-0.1-0.1-0.2-0.1c0,0,0,0,0,0l-0.1,0c-1.3,0-2.6-0.6-3.6-1.7c-1.1-1.1-1.7-2.6-1.6-3.9c0.2-2.7,3.6-5.3,7.1-5.3
		c1.2,0,2.2,0.3,3.2,0.8c0.3,0.2,0.6,0.4,0.9,0.6c0,0,0.1,0,0.1,0c0.1,0,0.1,0,0.1-0.1l0.9-0.9c0,0,0.1-0.1,0.1-0.1
		c0-0.1,0-0.1-0.1-0.1C16.9,18.8,14.5,17.8,12,17.8L12,17.8z"/>
</g>
<g>
	<path fill="#807F81" d="M27.9,18.2c-0.1,0-0.2,0-0.3-0.1c0-0.1,0.1-0.3,0.2-0.3c1.5-0.2,4.4-1.8,6.3-3.3c1.3-0.9,1.1-2.6,1-3.6
		c0-0.5-0.1-0.7,0-0.9c0,0,0.1-0.1,0.1-0.1c0.4,0,1.5,0,1.9,1.2c0.9-1.6,1.3-2.6,0.8-4.4c-0.2-0.7-0.5-1.1-0.7-1.5
		C37,4.6,36.6,4.2,37.2,3c0.2-0.4,0.6-0.6,1.1-0.6c0.7,0,1.4,0.4,1.8,1.2c0.1-0.4-0.1-1-0.3-1.6c-0.2-0.7-0.4-1.3-0.2-1.6
		c0.1-0.1,0.2-0.2,0.3-0.2c0.1,0,0.1,0,0.2,0c0.9,0,2,0.7,2.8,1.8c0.7,0.9,1.6,2.7,0.9,5.2c-1.7,5.9-8.2,8.4-11.3,9.6
		C29.6,17.9,28.9,18.2,27.9,18.2C28,18.2,28,18.2,27.9,18.2z"/>
	<path fill="#FFFFFF" d="M40.1,0.2c1.6,0,4.8,2.8,3.7,6.9c-1.6,5.8-8.1,8.3-11.3,9.6c-3,1.2-3.7,1.4-4.5,1.4c0,0,0,0-0.1,0
		c-0.4,0,0-0.3,0-0.3c1.4-0.2,4.4-1.8,6.3-3.3c1.9-1.4,0.6-4.5,1.1-4.5c0.5,0,1.6,0,1.8,1.4c1-1.6,1.4-2.7,1-4.7
		c-0.5-1.9-1.8-1.9-0.9-3.8c0.2-0.3,0.5-0.5,1-0.5c0.6,0,1.3,0.4,1.8,1.3C40.7,3,39,0.4,40,0.2C40,0.2,40.1,0.2,40.1,0.2 M40.1,0
		c-0.1,0-0.1,0-0.2,0c-0.2,0-0.3,0.1-0.4,0.2c-0.2,0.4,0,1,0.2,1.7C39.9,2.4,40,2.9,40,3.3c-0.5-0.6-1.1-1-1.8-1
		c-0.5,0-0.9,0.2-1.1,0.7c-0.6,1.2-0.3,1.8,0.2,2.4c0.2,0.4,0.5,0.8,0.7,1.5c0.4,1.6,0.1,2.6-0.7,4.1c-0.4-1.1-1.5-1.1-1.9-1.1
		c-0.1,0-0.2,0-0.2,0.1c-0.1,0.2-0.1,0.4-0.1,0.9c0.1,1,0.2,2.6-1,3.5c-1.9,1.4-4.8,3.1-6.2,3.2c0,0-0.1,0-0.1,0
		c-0.1,0.1-0.3,0.2-0.2,0.4c0,0.1,0.2,0.2,0.4,0.2l0.1,0c0.9,0,1.7-0.3,4.6-1.4c3.2-1.2,9.7-3.8,11.4-9.7c0.7-2.6-0.3-4.4-0.9-5.3
		C42.2,0.8,41,0,40.1,0L40.1,0z"/>
</g>
<g>
	<path fill="#807F81" d="M22,17.5C22,17.5,22,17.5,22,17.5c-1.3-1.7-1.6-3.9-0.8-5.8c0.7-1.7,2.1-2.9,3.9-3.3c0.2,0,0.4-0.1,0.7-0.1
		c1.8,0,3.4,1.4,3.8,2.8c0.3,0.9,0.1,1.8-0.6,2.3c-0.4,0.3-0.8,0.5-1.2,0.5c-0.5,0-0.9-0.2-1.3-0.6c-0.3-0.3-0.5-0.7-0.4-1.1
		c0,0,0,0,0,0c0,0-0.3-0.4-0.9-0.4c-0.3,0-0.5,0.1-0.8,0.2c-1.3,0.6-2.1,2.6-1.3,4.3c0,0,0,0.1,0,0.1L22,17.5
		C22.1,17.5,22.1,17.5,22,17.5C22,17.5,22,17.5,22,17.5z"/>
	<path fill="#FFFFFF" d="M25.8,8.4c2.7,0,5.1,3.5,3.2,4.9c-0.4,0.3-0.8,0.4-1.2,0.4c-1,0-1.7-0.9-1.6-1.6c0,0-0.3-0.5-1-0.5
		c-0.2,0-0.5,0.1-0.8,0.2c-1.4,0.7-2.1,2.7-1.3,4.5L22,17.4c-2.3-3.1-1-8.1,3.1-8.9C25.3,8.4,25.5,8.4,25.8,8.4 M25.8,8.2
		c-0.2,0-0.5,0-0.7,0.1c-1.8,0.4-3.3,1.6-4,3.4c-0.8,1.9-0.5,4.2,0.8,5.9c0,0,0.1,0.1,0.1,0.1c0,0,0,0,0,0c0.1,0,0.1,0,0.1-0.1
		l0.9-0.9c0.1-0.1,0.1-0.1,0-0.2c-0.8-1.7,0-3.6,1.2-4.2c0.3-0.1,0.5-0.2,0.8-0.2c0.4,0,0.7,0.2,0.8,0.3c0,0.4,0.2,0.7,0.5,1.1
		c0.4,0.4,0.9,0.6,1.4,0.6c0.4,0,0.9-0.2,1.3-0.5c0.7-0.6,1-1.5,0.6-2.4C29.2,9.7,27.6,8.2,25.8,8.2L25.8,8.2z"/>
</g>
<g>
	<path fill="#807F81" d="M20.7,18.9C20.7,18.9,20.6,18.9,20.7,18.9c-3.1-3.4-3.6-7.8-1.5-11.8c2.9-5.5,7.6-6.3,9.6-6.7l0.3-0.1
		c0.3-0.1,0.6-0.1,0.8-0.1c0.4,0,0.6,0.1,0.7,0.3c0.2,0.2,0,0.6-0.2,1.1c3.4,0.5,4.9,3,5.3,4.2c0.2,0.6,0.1,1-0.1,1.2
		c-0.1,0.1-0.3,0.2-0.4,0.2c-0.2,0-0.5-0.1-0.7-0.3c-0.4-0.2-0.9-0.6-1.6-0.6c0,0,0,0,0,0c1.1,1.1,1.4,3,1,4.3
		c-0.3,0.9-1,1.4-1.8,1.4c-0.2,0-0.4,0-0.6-0.1c0,0-0.1-0.1-0.1-0.1c0-1.2-0.5-2.5-1.5-3.6c-1.1-1.1-2.6-1.8-3.9-1.8
		c-0.1,0-0.2,0-0.2,0c-1.6,0.1-3.3,1.4-4.4,3.4c-1.3,2.3-1.3,5-0.1,7c0.2,0.3,0.4,0.6,0.6,0.9c0,0,0,0.1,0,0.1L20.7,18.9
		C20.7,18.9,20.7,18.9,20.7,18.9C20.7,18.9,20.7,18.9,20.7,18.9z"/>
	<path fill="#FFFFFF" d="M29.9,0.4c0.9,0,0.8,0.6,0.4,1.4c4.5,0.6,5.9,4.7,5.2,5.2c-0.1,0.1-0.2,0.1-0.3,0.1c-0.5,0-1.1-0.9-2.4-0.9
		c-0.1,0-0.2,0-0.3,0c2,1.6,1.7,5.7-0.5,5.7c-0.2,0-0.4,0-0.6-0.1c0.1-2.9-2.9-5.5-5.5-5.5c-0.1,0-0.2,0-0.2,0
		c-3.7,0.2-7.1,6.3-4.6,10.5c0.2,0.3,0.4,0.6,0.6,0.9l-0.9,0.9c-2.6-2.9-3.8-7.2-1.4-11.7c3-5.7,8.1-6.3,9.9-6.7
		C29.4,0.4,29.7,0.4,29.9,0.4 M29.9,0.2c-0.2,0-0.5,0-0.8,0.1l-0.3,0.1c-2,0.4-6.8,1.2-9.7,6.7c-2.1,4.1-1.6,8.5,1.5,11.9
		c0,0,0.1,0.1,0.1,0.1c0,0,0,0,0,0c0.1,0,0.1,0,0.1-0.1l0.9-0.9c0.1-0.1,0.1-0.2,0-0.3c-0.2-0.3-0.4-0.6-0.6-0.9
		c-1.4-2.3-0.8-5.1,0.1-6.9c1-1.9,2.7-3.2,4.3-3.3c0.1,0,0.2,0,0.2,0c1.3,0,2.8,0.7,3.8,1.8c1,1,1.5,2.3,1.5,3.5
		c0,0.1,0.1,0.2,0.1,0.2c0.2,0.1,0.4,0.1,0.6,0.1c0.8,0,1.5-0.6,1.8-1.5C34.2,9.4,34,7.6,33,6.4c0.6,0.1,1,0.3,1.3,0.5
		c0.3,0.2,0.5,0.3,0.8,0.3c0.2,0,0.3-0.1,0.5-0.2c0.3-0.2,0.3-0.7,0.2-1.3c-0.3-1.2-1.8-3.6-5.2-4.2c0.2-0.4,0.3-0.8,0.1-1.1
		C30.6,0.3,30.3,0.2,29.9,0.2L29.9,0.2z"/>
</g>
<g>
	<path fill="#807F81" d="M17.2,15.1c-0.2,0-0.6-0.3-1-0.9c-2.7-4.1-2.8-10.1-1.3-11.7c0.4-0.4,0.8-0.7,1.2-0.7c0.6,0,1,0.6,1.1,1.1
		c0.8-1.3,2.3-1.8,3.3-1.8c0.5,0,1,0.1,1.2,0.4c0.1,0.1,0.2,0.3,0.2,0.4c-6.3,5.5-4.3,12.3-4.2,12.4c0,0.1,0,0.5-0.1,0.7
		C17.4,15.1,17.3,15.1,17.2,15.1L17.2,15.1z"/>
	<path fill="#FFFFFF" d="M20.5,1.3c0.7,0,1.3,0.3,1.3,0.7c-6.2,5.4-4.4,12.1-4.2,12.5c0,0,0,0.6-0.3,0.6c-0.2,0-0.4-0.2-0.9-0.9
		C13.6,10,13.6,4.1,15,2.6C15.4,2.1,15.8,2,16.1,2c0.6,0,1,0.8,1.1,1.3C17.9,1.8,19.4,1.3,20.5,1.3 M20.5,1.1c-1,0-2.4,0.4-3.2,1.7
		c-0.2-0.5-0.6-1-1.1-1c-0.4,0-0.8,0.2-1.2,0.7c-1.5,1.6-1.5,7.6,1.3,11.8c0.5,0.7,0.8,1,1.1,1c0.1,0,0.2,0,0.3-0.1
		c0.2-0.2,0.2-0.7,0.2-0.7c0,0,0-0.1,0-0.1c0-0.1-2.1-6.8,4.2-12.2c0,0,0.1-0.1,0.1-0.1c0-0.2-0.1-0.3-0.2-0.5
		C21.5,1.2,21,1.1,20.5,1.1L20.5,1.1z"/>
</g>
<g>
	<path fill="#807F81" d="M32,24.5C32,24.5,32,24.5,32,24.5c-1.3-0.9-2.6-1.2-4-1.6c-1.6-0.4-3.5-0.9-5.5-2.3c0,0,0,0,0-0.1
		s0-0.1,0-0.1l0.8-0.8c0,0,0,0,0.1,0c0,0,0,0,0.1,0c1.5,1.2,3.4,1.8,5.5,1.8c2.6,0,4.8-0.9,5.8-1.8c0,0,0.2-0.1,0.4-0.1
		c0.2,0,0.3,0.1,0.3,0.2c0.1,0.1,0.1,0.4-0.5,1.1c-1,1.3-2.8,1.8-3.4,2c0.2,0.2,0.6,0.5,0.7,0.9C32.3,23.9,32.3,24.2,32,24.5
		C32.1,24.4,32.1,24.5,32,24.5C32,24.5,32,24.5,32,24.5z"/>
	<path fill="#FFFFFF" d="M35.2,19.6c0.3,0,0.5,0.2-0.3,1.1c-1.2,1.5-3.6,2-3.6,2s1.4,0.7,0.7,1.7c-2.7-1.9-5.8-1.4-9.4-3.9l0.8-0.8
		c1.7,1.3,3.7,1.8,5.6,1.8c2.5,0,4.8-0.9,5.9-1.8C34.8,19.6,35,19.6,35.2,19.6 M35.2,19.4c-0.2,0-0.4,0.1-0.4,0.1c0,0,0,0-0.1,0
		c-1,0.8-3.2,1.7-5.7,1.7c-2.1,0-4-0.6-5.5-1.7c0,0-0.1,0-0.1,0c-0.1,0-0.1,0-0.1,0.1l-0.8,0.8c0,0-0.1,0.1-0.1,0.2
		c0,0.1,0,0.1,0.1,0.1c2,1.4,3.8,1.9,5.5,2.3c1.4,0.4,2.7,0.7,4,1.6c0,0,0.1,0,0.1,0c0,0,0,0,0,0c0.1,0,0.1,0,0.1-0.1
		c0.2-0.3,0.2-0.6,0.2-0.9c-0.1-0.4-0.4-0.6-0.6-0.8c0.8-0.2,2.4-0.8,3.3-2c0.5-0.6,0.6-1,0.5-1.2C35.5,19.5,35.4,19.4,35.2,19.4
		L35.2,19.4z"/>
</g>
<g>
	<path fill="#807F81" d="M19.4,20.1C19.4,20.1,19.4,20.1,19.4,20.1L16.2,17c-2.5-1.9-5.3-3.4-8.3-4.3c-0.5-0.1-0.8-0.2-1.2-0.2
		c-0.6,0-1.2,0.2-2,0.4c-0.5,0.1-1.1,0.3-1.8,0.5c0,0,0,0,0,0c-0.2,0-0.3-0.1-0.3-0.3c-0.1-0.5,0.2-1.4,1.1-1.8
		c-0.3-0.2-0.9-0.9-1.2-2.1c-0.2-0.9-0.9-1-1.3-1.1C1,8.1,0.9,8,0.9,7.9c0-0.1,0.1-0.2,0.3-0.3c0.3-0.2,0.7-0.3,1-0.3
		c0.6,0,1.1,0.3,1.4,0.9c0-0.1,0-0.1,0-0.2c0-0.3-0.3-0.8-0.5-1c0,0,0-0.1,0-0.1c0.1-0.2,0.3-0.3,0.6-0.3c0.6,0,1.5,0.8,1.8,1.9
		C5.9,10.5,7.4,11,9,11.6c0.7,0.2,1.3,0.5,2,0.9c0.6,0.3,1.3,0.8,2,1.3L9.2,9.9C9.1,9.8,9,9.7,8.9,9.6C8.7,9.4,8.5,9.3,8.4,9.3
		C8.4,9.3,8.2,9.4,8,9.6C7.9,9.7,7.7,9.8,7.6,9.8C7.3,9.8,7.1,9.5,7,9.3c0-0.2,0-0.3,0.1-0.4c0.2-0.1,0.4-0.2,0.4-0.4
		c0-0.2-0.1-0.5-0.5-0.8C6.9,7.5,6.8,7.4,6.7,7.4c-0.1,0-0.2,0.2-0.3,0.3C6.3,7.9,6.2,8,6.1,8C5.9,8,5.7,7.8,5.5,7.3
		C4.9,6,3.4,3.6,3.4,3.5c0,0,0-0.1,0-0.1c0,0,0,0,0.1,0c0,0,0,0,0.1,0c0,0,2.5,1.5,3.8,2.1C7.8,5.7,8,5.9,8,6.1
		c0,0.2-0.1,0.3-0.3,0.4C7.6,6.5,7.4,6.6,7.4,6.7c0,0.1,0.1,0.2,0.2,0.4C8,7.4,8.2,7.6,8.4,7.6c0.2,0,0.4-0.3,0.4-0.4
		C8.9,7.1,9,7,9.1,7c0.2,0,0.5,0.2,0.6,0.4C9.8,7.5,9.8,7.8,9.6,8C9.4,8.2,9.3,8.4,9.3,8.4c0,0.1,0.1,0.2,0.4,0.4
		C9.7,9,9.8,9.1,9.9,9.2l3.8,3.8c-0.5-0.7-0.9-1.3-1.2-1.9c-0.4-0.6-0.6-1.3-0.9-2C11,7.4,10.5,5.9,8.4,5.4c-1-0.2-1.8-1.1-1.8-1.7
		c0-0.3,0.1-0.5,0.3-0.7c0,0,0,0,0,0c0,0,0.1,0,0.1,0c0.2,0.2,0.6,0.5,1,0.5c0.1,0,0.1,0,0.2,0C7.7,3.3,7.4,3,7.3,2.6
		c-0.1-0.4,0-0.9,0.3-1.4C7.7,1,7.8,0.9,7.9,0.9C8,0.9,8.1,1,8.1,1.2c0.1,0.4,0.2,1,1.1,1.3c1.2,0.3,1.9,0.9,2.1,1.2
		C11.7,3,12.5,2.6,13,2.6c0.2,0,0.3,0,0.4,0.1c0,0.1,0.1,0.1,0,0.2c-0.2,0.7-0.4,1.3-0.5,1.8c-0.4,1.3-0.6,2-0.2,3.2
		c0.9,3,2.4,5.7,4.3,8.3l3.1,3.1c0,0,0,0.1,0,0.1L19.4,20.1C19.5,20.1,19.4,20.1,19.4,20.1z"/>
	<path fill="#FFFFFF" d="M7.9,1c0.2,0,0,1.3,1.3,1.6c1.6,0.4,2.2,1.3,2.2,1.3c0.3-0.8,1.1-1.2,1.6-1.2c0.2,0,0.4,0.1,0.3,0.2
		c-0.7,2.7-1.3,3.3-0.7,5.1c1.1,3.6,2.8,6.4,4.3,8.3l3.1,3.1L19.4,20l-3.1-3.1c-1.9-1.5-4.7-3.2-8.3-4.3c-0.5-0.1-0.9-0.2-1.3-0.2
		c-1,0-1.9,0.4-3.8,0.9c0,0,0,0,0,0c-0.4,0-0.2-1.6,1-2c0,0-0.9-0.6-1.3-2.2C2.2,7.6,0.3,8.3,1.2,7.7c0.3-0.2,0.7-0.3,1-0.3
		c0.6,0,1.1,0.3,1.4,1C4,7.9,3.4,7.2,3.2,6.9c0.1-0.2,0.3-0.3,0.5-0.3c0.6,0,1.5,0.8,1.7,1.8c0.7,3,3.4,2.9,5.6,4.1
		c1,0.6,2.1,1.3,3,2.1L9.2,9.9C8.8,9.4,8.6,9.2,8.4,9.2c-0.1,0-0.3,0.1-0.5,0.3C7.8,9.6,7.7,9.7,7.6,9.7C7.2,9.7,7,9.1,7.2,9
		c0.2-0.1,1-0.4,0-1.4C7,7.4,6.8,7.3,6.7,7.3c-0.3,0-0.4,0.6-0.7,0.6C6,7.9,5.8,7.8,5.6,7.3C5,6,3.5,3.5,3.5,3.5S6,5,7.3,5.6
		c1.8,0.8-0.7,0.6,0.3,1.6c0.4,0.4,0.7,0.5,0.9,0.5c0.3,0,0.5-0.3,0.5-0.5c0,0,0.1-0.1,0.2-0.1c0.3,0,0.9,0.4,0.4,0.8
		C8.9,8.5,9.2,8.5,9.9,9.2l4.8,4.8c-0.8-1-1.5-2-2.1-3c-1.3-2.2-1.1-4.9-4.1-5.6C7.1,5,6.2,3.6,6.9,3.2C7.1,3.4,7.6,3.7,8,3.7
		c0.1,0,0.3,0,0.4-0.1c-1-0.5-1.3-1.4-0.7-2.3C7.8,1.1,7.9,1,7.9,1 M7.9,0.8L7.9,0.8c-0.2,0-0.3,0.2-0.4,0.3c-0.3,0.5-0.4,1-0.3,1.5
		C7.3,3,7.5,3.3,7.9,3.5C7.6,3.5,7.3,3.2,7.1,3C7,3,7,3,6.9,3c0,0-0.1,0-0.1,0C6.6,3.1,6.4,3.4,6.5,3.8c0.1,0.6,0.8,1.5,1.9,1.8
		c2,0.5,2.5,1.9,3.1,3.5c0.2,0.7,0.5,1.4,0.9,2c0.2,0.3,0.4,0.7,0.7,1.1l-3-3C9.9,9,9.8,8.9,9.7,8.8C9.5,8.7,9.4,8.5,9.4,8.4
		c0-0.1,0.1-0.2,0.3-0.4C10,7.8,9.9,7.5,9.8,7.4C9.7,7.1,9.4,6.9,9.1,6.9C9,6.9,8.9,7,8.8,7.1C8.7,7.3,8.6,7.5,8.4,7.5
		C8.3,7.5,8.1,7.4,7.7,7C7.5,6.8,7.5,6.7,7.5,6.7c0-0.1,0.2-0.2,0.3-0.2C8,6.4,8.1,6.3,8.1,6.1S7.9,5.7,7.3,5.4
		C6.1,4.8,3.6,3.3,3.6,3.3c0,0-0.1,0-0.1,0c-0.1,0-0.1,0-0.1,0.1c-0.1,0.1-0.1,0.2,0,0.2c0,0,1.5,2.5,2.1,3.8
		c0.3,0.6,0.4,0.8,0.7,0.8c0.2,0,0.3-0.2,0.4-0.4c0.1-0.1,0.2-0.3,0.2-0.3c0,0,0.1,0,0.3,0.2c0.4,0.4,0.5,0.7,0.4,0.8
		c0,0.2-0.2,0.2-0.3,0.3C6.9,8.9,6.9,9.1,6.9,9.3C7,9.6,7.2,9.9,7.6,9.9c0.2,0,0.3-0.1,0.5-0.2c0.2-0.2,0.3-0.3,0.4-0.3
		c0.1,0,0.2,0.2,0.4,0.3C8.9,9.8,9,9.9,9.1,10l3,3c-0.4-0.2-0.7-0.5-1.1-0.7c-0.7-0.4-1.3-0.6-2-0.9c-1.6-0.6-3-1.1-3.5-3.1
		C5.3,7.3,4.3,6.5,3.6,6.5C3.4,6.5,3.1,6.6,3,6.8c0,0.1,0,0.2,0,0.2c0.2,0.2,0.4,0.5,0.5,0.8C3.2,7.4,2.7,7.2,2.2,7.2
		c-0.4,0-0.7,0.1-1.1,0.3C0.9,7.7,0.8,7.8,0.8,8c0,0.2,0.2,0.2,0.4,0.3c0.4,0.1,1,0.2,1.2,1c0.3,1.1,0.8,1.8,1.2,2.1
		c-0.8,0.4-1.1,1.4-1,1.8c0,0.3,0.2,0.4,0.4,0.4c0,0,0.1,0,0.1,0c0.7-0.2,1.3-0.4,1.8-0.5c0.8-0.3,1.4-0.4,2-0.4
		c0.4,0,0.7,0.1,1.2,0.2c2.9,0.9,5.7,2.3,8.2,4.3l3.1,3.1c0,0,0.1,0.1,0.1,0.1s0.1,0,0.1-0.1l0.6-0.6c0.1-0.1,0.1-0.2,0-0.3
		l-3.1-3.1c-1.9-2.5-3.3-5.3-4.3-8.2c-0.4-1.2-0.2-1.9,0.2-3.2c0.2-0.5,0.3-1.1,0.5-1.8c0-0.1,0-0.2-0.1-0.3
		c-0.1-0.1-0.3-0.2-0.5-0.2c-0.5,0-1.3,0.3-1.7,1c-0.3-0.3-1-0.9-2.1-1.2c-0.8-0.2-0.9-0.8-1-1.2C8.2,1,8.1,0.8,7.9,0.8L7.9,0.8z"/>
</g>
<g>
	<path fill="#807F81" d="M36.9,22.6c-1.5,0-2.2-0.7-2.3-0.8c0,0,0-0.1,0-0.1s0-0.1,0.1-0.1c0,0,1.8-0.5,2.6-1.7
		c0.3-0.6,0.4-1.3,0.2-2c-0.1-0.2,0-0.3,0.1-0.5c0.1-0.2,0.4-0.3,0.7-0.3c0.2,0,0.6,0.1,1.1,0.6c0-0.4,0.2-1.2,1.1-1.5
		c0.1,0,0.1,0,0.2,0c0.5,0,1,0.5,1.3,1.2c0.4,1,0.4,2.7-1,4c-1,1.1-2,1.2-2.9,1.2c-0.2,0-0.4,0-0.5,0C37.2,22.6,37.1,22.6,36.9,22.6
		L36.9,22.6z"/>
	<path fill="#FFFFFF" d="M40.6,16.3c1.2,0,2.4,3,0.2,5c-1.2,1.3-2.3,1.1-3.4,1.2c-0.2,0-0.3,0-0.5,0c-1.5,0-2.2-0.7-2.2-0.7
		s3.7-0.9,2.8-3.9c-0.1-0.3,0.2-0.7,0.7-0.7c0.3,0,0.8,0.2,1.2,0.8c0,0-0.3-1.3,1-1.7C40.4,16.3,40.5,16.3,40.6,16.3 M40.6,16.1
		c-0.1,0-0.2,0-0.2,0c-0.8,0.2-1.1,0.8-1.1,1.3c-0.4-0.4-0.8-0.4-1-0.4c-0.3,0-0.6,0.1-0.8,0.4c-0.1,0.2-0.2,0.4-0.1,0.6
		c0.2,0.7,0.2,1.4-0.2,2c-0.7,1.2-2.5,1.7-2.5,1.7c-0.1,0-0.1,0.1-0.1,0.1c0,0.1,0,0.1,0.1,0.2c0,0,0.8,0.8,2.3,0.8
		c0.2,0,0.3,0,0.5,0c0.2,0,0.4,0,0.5,0c0.9,0,2-0.1,3-1.3c1.4-1.3,1.5-3,1-4.1C41.6,16.5,41.1,16.1,40.6,16.1L40.6,16.1z"/>
</g>
<g>
	<path fill="#807F81" d="M9.8,54.9c-1.8,0-3.5-1-4.3-2.5c-1.2-2.3-0.9-4.5,0.9-6.7c1.1-1.4,2.6-2.1,3.7-2.7c0.2-0.1,0.4-0.2,0.5-0.3
		c0.4-0.2,0.8-0.5,1.1-0.7c0.4-0.3,0.6-0.4,0.7-0.4c0,0,0.1,0,0.1,0.1c0,0.1,0,0.2,0,0.2c-0.4,1.1-1.3,1.9-2.2,2.7
		c-1.1,1-2.3,2-2.4,3.6c-0.1,1.1,0.2,2,0.8,2.6c0.4,0.4,0.9,0.7,1.4,0.7c0.3,0,0.6-0.1,0.9-0.3c0.3-0.3,0.4-0.7,0.2-1.1
		c-0.2-0.5-0.6-0.8-1.1-0.8c-0.4,0-0.8,0.2-1.1,0.6c0,0,0,0-0.1,0c0,0,0,0,0,0c0,0-0.5-0.2-0.7-0.7c-0.1-0.3-0.1-0.7,0.2-1.2
		c0.6-0.9,1.5-1.5,2.6-1.5c0.8,0,1.6,0.3,2.1,1c0.5,0.6,1.1,1.6,0.9,3.4C13.7,53.9,11.5,54.9,9.8,54.9C9.8,54.9,9.8,54.9,9.8,54.9z"
		/>
	<path fill="#FFFFFF" d="M12.4,41.8c0.1,0,0.1,0,0,0.2c-0.8,2.4-4.3,3.5-4.5,6.3c-0.1,2.2,1.2,3.4,2.3,3.4c0.3,0,0.7-0.1,0.9-0.4
		c0.8-0.8,0-2-1-2c-0.4,0-0.8,0.2-1.2,0.6c0,0-1.2-0.4-0.4-1.7c0.6-1,1.5-1.5,2.5-1.5c1.6,0,3.2,1.4,2.9,4.2
		c-0.3,2.7-2.2,3.9-4.1,3.9c-1.7,0-3.4-0.9-4.2-2.4c-1.3-2.6-0.6-4.7,0.9-6.6c1.3-1.6,3.1-2.3,4.2-2.9
		C11.5,42.4,12.2,41.8,12.4,41.8 M12.4,41.6l0,0.2L12.4,41.6c-0.1,0-0.3,0.1-0.7,0.4c-0.3,0.2-0.7,0.5-1.1,0.7
		c-0.2,0.1-0.3,0.2-0.5,0.3c-1.1,0.6-2.6,1.3-3.7,2.7c-1.8,2.2-2.1,4.5-0.9,6.8C6.2,54,7.9,55,9.8,55c1.8,0,4-1.1,4.3-4
		c0.2-1.8-0.4-2.9-0.9-3.4c-0.6-0.6-1.4-1-2.2-1c-1.1,0-2.1,0.6-2.7,1.6c-0.1,0.2-0.2,0.5-0.3,0.7c0-0.2,0-0.3,0-0.5
		c0.1-1.5,1.2-2.5,2.3-3.5c0.9-0.8,1.8-1.6,2.2-2.7c0-0.1,0.1-0.2,0-0.3C12.5,41.7,12.4,41.6,12.4,41.6L12.4,41.6z M10.1,51.5
		c-0.4,0-0.9-0.2-1.3-0.6c-0.4-0.4-0.6-0.9-0.7-1.5c0.2,0.5,0.7,0.7,0.7,0.7s0,0,0.1,0c0.1,0,0.1,0,0.1-0.1c0.3-0.4,0.7-0.5,1-0.5
		c0.4,0,0.8,0.3,1,0.7c0.1,0.4,0.1,0.7-0.2,1C10.7,51.4,10.4,51.5,10.1,51.5L10.1,51.5z"/>
</g>
<g>
	<path fill="#807F81" d="M45.8,27.3c-1,0-2-0.4-3-1.2c0,0,0-0.1,0-0.1c0,0,0-0.1,0.1-0.1c0.1,0,0.3,0,0.4-0.1
		c0.7-0.1,1.1-0.1,1.7-1.2c-1.4-0.5-1.4-1.4-1.3-1.8c0.1-0.7,0.7-1.3,1.3-1.3c0.2,0,0.3,0,0.5,0c0.7,0,1.3-0.2,2-1
		c0.7-0.8,1.3-2.3,0.4-3.3c0.1,1.2-0.3,1.8-0.6,2.2c-0.3,0.3-0.7,0.5-1.2,0.5c-0.4,0-0.8-0.1-1.2-0.4c0,0,0,0,0-0.1c0,0,0-0.1,0-0.1
		c0.5-0.6,0.7-1.2,0.4-1.8c-0.5-1.1-2.2-1.9-4.1-1.9c-0.6,0-1.3,0.1-1.9,0.3c-1.4,0.4-2.9,1-4.6,1.7c-2.8,1.2-5.7,2.3-8.1,2.3
		c-0.7,0-1.4-0.1-1.9-0.3c-0.3-0.1-0.6-0.3-0.9-0.4c0,0,0,0,0-0.1c0,0,0-0.1,0-0.1l0.8-0.8c0,0,0,0,0.1,0c0,0,0,0,0,0
		c0.2,0.1,0.3,0.2,0.5,0.3c0.4,0.1,0.8,0.2,1.3,0.2c2.4,0,6-1.7,9.2-3.1c1.4-0.6,2.7-1.2,3.8-1.6c1.5-0.6,2.9-0.8,4.1-0.8
		c2.5,0,4.2,1.1,6.1,2.8c1.5,1.3,2.3,3.1,2.3,4.8c0,1.6-0.6,3.2-1.8,4.3C48.7,26.5,47.2,27.3,45.8,27.3
		C45.8,27.3,45.8,27.3,45.8,27.3z"/>
	<path fill="#FFFFFF" d="M43.7,13.2c2.4,0,4.1,1.1,6,2.7c2.8,2.5,3.1,6.5,0.5,9c-1.6,1.5-3,2.3-4.4,2.3c-1,0-1.9-0.4-2.9-1.2
		c1-0.2,1.4,0,2.2-1.4c-2.4-0.8-1.2-3-0.1-3c0,0,0,0,0.1,0c0.1,0,0.3,0,0.4,0c0.8,0,1.4-0.2,2.1-1.1c0.8-1,1.4-2.6,0.2-3.6
		c0.2,1.9-0.7,2.9-1.7,2.9c-0.4,0-0.8-0.1-1.1-0.4c1.7-1.8-0.6-3.8-3.7-3.8c-0.6,0-1.3,0.1-1.9,0.3c-3.8,1-8.9,4-12.6,4
		c-0.7,0-1.3-0.1-1.9-0.3c-0.3-0.1-0.6-0.3-0.9-0.4l0.8-0.8c0.2,0.1,0.4,0.2,0.6,0.3c0.4,0.2,0.8,0.2,1.3,0.2
		c3.5,0,9.6-3.5,13.1-4.8C41.2,13.5,42.6,13.2,43.7,13.2 M43.7,13c-1.2,0-2.6,0.3-4.1,0.8c-1.1,0.4-2.4,1-3.8,1.6
		c-3.2,1.5-6.8,3.1-9.2,3.1c-0.5,0-0.9-0.1-1.3-0.2c-0.2-0.1-0.4-0.2-0.5-0.3c0,0-0.1,0-0.1,0c-0.1,0-0.1,0-0.1,0.1L23.8,19
		c0,0-0.1,0.1-0.1,0.2c0,0.1,0,0.1,0.1,0.1c0.3,0.2,0.6,0.3,0.9,0.4c0.6,0.2,1.2,0.3,2,0.3c2.4,0,5.3-1.2,8.1-2.4
		c1.6-0.7,3.2-1.3,4.6-1.7c0.6-0.2,1.3-0.3,1.9-0.3c1.8,0,3.5,0.8,4,1.8c0.2,0.6,0.1,1.1-0.4,1.7c0,0-0.1,0.1-0.1,0.2s0,0.1,0.1,0.1
		c0.4,0.3,0.8,0.4,1.2,0.4c0.5,0,0.9-0.2,1.3-0.6c0.3-0.3,0.6-0.9,0.7-1.9c0.5,0.9,0,2.2-0.6,2.9c-0.7,0.8-1.2,1-1.9,1
		c-0.1,0-0.3,0-0.4,0c0,0,0,0-0.1,0c-0.6,0-1.3,0.6-1.4,1.4c-0.1,0.4-0.1,1.3,1.3,1.9c-0.6,1-0.9,1-1.6,1.1c-0.1,0-0.2,0-0.4,0.1
		c-0.1,0-0.1,0.1-0.2,0.1s0,0.2,0.1,0.2c1,0.9,2,1.3,3,1.3c1.4,0,2.9-0.8,4.5-2.3c1.2-1.2,1.9-2.7,1.9-4.4c0-1.8-0.9-3.6-2.4-4.9
		C48.2,14.3,46.4,13,43.7,13L43.7,13z"/>
</g>
<g>
	<path fill="#807F81" d="M50.3,14c-2.2,0-3.3-1.2-3.6-2.3c-0.4-1.3,0.2-2.6,1.4-3.3c0.3-0.2,0.6-0.3,0.8-0.3c0.7,0,1,0.7,1,0.8
		c0,0,0,0.1,0,0.1c-0.5,0.4-0.7,1-0.5,1.5c0.2,0.5,0.6,0.8,1.1,0.8c0.3,0,0.5-0.1,0.7-0.3c0.4-0.4,0.5-0.9,0.2-1.5
		C51.1,8.8,50.2,8,48.6,8c-0.1,0-0.2,0-0.3,0c-1.5,0.1-2.6,1.2-3.6,2.3c-0.8,0.9-1.6,1.8-2.7,2.2c-0.1,0-0.1,0-0.1,0
		c0,0-0.1,0-0.1-0.1c-0.1-0.1,0-0.3,0.4-0.7c0.2-0.3,0.5-0.7,0.7-1.1c0.1-0.2,0.2-0.3,0.3-0.5c0.6-1.1,1.3-2.6,2.7-3.7
		c1.3-1.1,2.6-1.6,4-1.6c0.9,0,1.8,0.2,2.7,0.7c1.8,0.9,2.8,3.1,2.4,5.2c-0.4,1.9-1.8,3.1-3.9,3.3C50.7,14,50.5,14,50.3,14
		C50.3,14,50.3,14,50.3,14z"/>
	<path fill="#FFFFFF" d="M49.7,4.9c0.8,0,1.7,0.2,2.7,0.7c3.4,1.8,3.5,7.9-1.4,8.3c-0.2,0-0.4,0-0.6,0c-4,0-4.6-4-2.1-5.4
		c0.3-0.2,0.6-0.2,0.8-0.2c0.7,0,0.9,0.7,0.9,0.7c-1.3,1.1-0.3,2.5,0.7,2.5c0.3,0,0.5-0.1,0.8-0.3c1-1-0.1-3.2-2.7-3.2
		c-0.1,0-0.2,0-0.3,0c-2.8,0.2-3.9,3.7-6.3,4.5c0,0-0.1,0-0.1,0c-0.3,0,0.4-0.7,1-1.8c0.6-1.1,1.4-2.9,2.9-4.2
		C47,5.5,48.3,4.9,49.7,4.9 M49.7,4.7c-1.4,0-2.7,0.5-4,1.6C44.3,7.4,43.5,8.9,43,10c-0.1,0.2-0.2,0.4-0.3,0.5
		c-0.2,0.4-0.5,0.8-0.7,1.1c-0.3,0.5-0.5,0.7-0.4,0.9c0,0.1,0.1,0.1,0.2,0.1c0,0,0.1,0,0.2,0c1.1-0.4,1.9-1.3,2.7-2.2
		c1-1.1,2-2.2,3.5-2.3c0.1,0,0.2,0,0.3,0c0.1,0,0.1,0,0.2,0c-0.2,0-0.4,0.1-0.7,0.3c-1.2,0.7-1.8,2.1-1.4,3.4
		c0.3,1.1,1.4,2.4,3.7,2.4c0.2,0,0.4,0,0.6,0c2.1-0.2,3.6-1.5,4-3.4c0.4-2.1-0.6-4.4-2.5-5.3C51.5,4.9,50.6,4.7,49.7,4.7L49.7,4.7z
		 M50.5,11.2c-0.4,0-0.8-0.3-1-0.7c-0.1-0.3-0.2-0.8,0.5-1.4c0.1-0.1,0.1-0.1,0.1-0.2c0,0-0.2-0.5-0.7-0.7c1.1,0.2,1.7,0.9,1.9,1.4
		c0.2,0.5,0.1,1-0.2,1.4C51,11.1,50.8,11.2,50.5,11.2L50.5,11.2z"/>
</g>
<g>
	<path fill="#807F81" d="M27.1,31.2c-0.7,0-0.9-0.8-0.9-1.3c-0.3,0.4-0.7,0.7-1.2,0.7c-0.4,0-0.7-0.2-0.9-0.5
		c-0.2-0.2-0.3-0.8,0.1-1.7c0.6-1.2-0.2-3.2-2.3-5.5l-0.1-0.1c-0.3-0.3-0.5-0.6-0.7-0.9c0,0,0-0.1,0-0.1l0.7-0.7c0,0,0,0,0.1,0
		c0,0,0,0,0.1,0c0.3,0.3,0.6,0.5,0.9,0.7l0.1,0.1c2.3,2.1,3.8,2.5,4.6,2.5c0.3,0,0.6-0.1,0.9-0.2c0.4-0.2,0.7-0.3,1-0.3
		c0.6,0,1,0.3,1.1,0.8c0.1,0.4-0.1,1-0.7,1.4c0.4,0,1,0.2,1.2,0.6c0.1,0.2,0.1,0.5,0,0.8c-0.2,0.5-0.6,0.7-1.1,0.7h0
		c-1,0-2.3-0.9-3.4-1.8c0.9,1.1,1.9,2.6,1.7,3.6c-0.1,0.4-0.3,0.7-0.7,0.9C27.4,31.1,27.2,31.2,27.1,31.2z"/>
	<path fill="#FFFFFF" d="M21.9,21.1c0.3,0.2,0.6,0.5,0.9,0.7c0.2,0.2,2.7,2.6,4.8,2.6c0.3,0,0.7-0.1,1-0.2c0.4-0.2,0.7-0.3,1-0.3
		c1.2,0,1.5,1.6,0.1,2.2c0,0,2,0,1.4,1.2c-0.2,0.5-0.6,0.7-1.1,0.7c-1.5,0-3.8-2-4.8-3.1c1.4,1.4,4.5,4.9,2.4,5.9
		c-0.2,0.1-0.3,0.1-0.4,0.1c-0.8,0-0.8-1.5-0.8-1.5c-0.3,0.6-0.8,0.9-1.2,0.9c-0.7,0-1.3-0.8-0.7-2c1.1-2.1-2.2-5.4-2.4-5.7
		c-0.3-0.3-0.5-0.6-0.7-0.9L21.9,21.1 M21.9,20.9c0,0-0.1,0-0.1,0L21,21.7c-0.1,0.1-0.1,0.2,0,0.3c0.2,0.3,0.5,0.6,0.7,0.9l0.1,0.1
		c2.1,2.3,2.9,4.2,2.3,5.4c-0.5,0.9-0.3,1.5-0.1,1.8c0.2,0.3,0.6,0.5,1,0.5c0.4,0,0.8-0.2,1.1-0.6c0.1,0.5,0.3,1.1,1,1.1
		c0.2,0,0.3,0,0.5-0.1c0.4-0.2,0.7-0.5,0.8-1c0.1-0.9-0.5-2-1.3-3.1c0.9,0.7,2,1.3,2.8,1.3c0.6,0,1-0.3,1.2-0.8
		c0.2-0.3,0.2-0.6,0-0.9c-0.2-0.3-0.7-0.5-1-0.6c0.5-0.4,0.6-1,0.5-1.4c-0.1-0.5-0.6-0.9-1.2-0.9c-0.3,0-0.7,0.1-1,0.3
		c-0.3,0.1-0.5,0.2-0.9,0.2c-0.8,0-2.3-0.4-4.5-2.5l-0.1-0.1c-0.3-0.2-0.6-0.5-0.8-0.7C22,21,21.9,20.9,21.9,20.9L21.9,20.9z"/>
</g>
<g>
	<path fill="#807F81" d="M38.4,29.5c-2.2,0-4.9-1.2-6.1-2.6c-1.1-1.3-1.1-1.6-1.1-1.7c0,0,0.1-0.1,0.2-0.1c0.1,0,0.3,0.1,0.5,0.2
		c0.3,0.2,0.6,0.2,1,0.2c1.1,0,2.7-0.7,3-1.6c0.1-0.4,0.4-0.5,0.7-0.5c0.5,0,1,0.3,1.3,0.8c0.3,0.5,0.4,1,0.2,1.5
		c-0.4,0.9-1.1,1.3-1.6,1.4c0.2,0,0.5,0.1,0.8,0.1c0.8,0,1.4-0.3,1.8-0.9c0.3-0.4,0.6-0.6,1-0.6c0.5,0,1,0.4,1.3,0.9
		c0.1,0.3,0.4,1.2-0.6,2.1C40.3,29.2,39.5,29.5,38.4,29.5L38.4,29.5z"/>
	<path fill="#FFFFFF" d="M36.7,23.4c0.8,0,1.8,1.1,1.4,2.2C37.4,27,36.1,27,36.1,27s0.5,0.2,1.2,0.2c0.6,0,1.4-0.2,1.9-0.9
		c0.3-0.4,0.6-0.5,0.9-0.5c1,0,2,1.5,0.6,2.9c-0.5,0.5-1.4,0.8-2.3,0.8c-2.1,0-4.8-1.2-6-2.5c-1.1-1.3-1.2-1.7-1-1.7
		c0.1,0,0.3,0.1,0.4,0.2c0.3,0.2,0.7,0.3,1.1,0.3c1.2,0,2.7-0.7,3.1-1.7C36.2,23.5,36.4,23.4,36.7,23.4 M36.7,23.2L36.7,23.2
		c-0.4,0-0.7,0.2-0.8,0.6c-0.3,0.9-1.8,1.6-2.9,1.6c-0.4,0-0.7-0.1-1-0.2c-0.1-0.1-0.3-0.2-0.5-0.2c-0.1,0-0.2,0.1-0.3,0.2
		c-0.1,0.2-0.1,0.5,1.1,1.8c1.2,1.4,4,2.6,6.2,2.6c1.1,0,1.9-0.3,2.5-0.8c0.7-0.7,0.9-1.5,0.6-2.2c-0.2-0.6-0.8-1-1.3-1
		c-0.4,0-0.8,0.2-1.1,0.6c-0.4,0.6-1,0.8-1.7,0.8c-0.1,0-0.3,0-0.4,0c0.4-0.2,0.9-0.6,1.3-1.4c0.2-0.5,0.2-1.1-0.2-1.6
		C37.7,23.5,37.2,23.2,36.7,23.2L36.7,23.2L36.7,23.2z"/>
</g>
<g>
	<path fill="#807F81" d="M20.8,52.1c-1.8,0-3.6-0.8-4.9-2.3c-2.5-2.9-3.7-5.4-1.9-10.2c0.4-1.1,1-2.4,1.6-3.8
		c1.7-3.7,3.8-8.4,2.9-10.6c-0.1-0.2-0.2-0.4-0.3-0.5c0,0,0-0.1,0-0.1l0.8-0.8c0,0,0,0,0.1,0c0,0,0,0,0,0c0,0,0.1,0,0.1,0
		c0.2,0.3,0.3,0.6,0.4,0.9c1,2.7-0.5,6.4-2,10c-0.7,1.6-1.3,3.2-1.7,4.6c-0.6,2.3,0,4.3,0.7,5.2c0.4,0.6,1,0.9,1.5,0.9h0
		c0.4,0,0.8-0.2,1.2-0.5c0,0,0,0,0.1,0c0,0,0,0,0,0c0,0,0.1,0,0.1,0c0.4,0.6,0.5,1.3,0.2,1.9c-0.4,0.7-1.2,1.1-2.3,1.1
		c-0.1,0-0.1,0-0.2,0c0.3,0.3,0.7,0.4,1.2,0.4c0.8,0,1.6-0.4,2.1-0.8c1-0.8,1.1-1.4,1-2.4c0-0.3,0.1-0.6,0.3-0.8
		c0.3-0.3,0.8-0.6,1.2-0.6c0.4,0,1.1,0.2,1.5,1.3c1.1-0.6,1.2-1,1.2-1.7c0-0.1,0-0.2,0.1-0.4c0,0,0-0.1,0.1-0.1c0,0,0,0,0,0
		c0,0,0.1,0,0.1,0c1.9,2.2,1.6,4.6-1,7.4C23.9,51.5,22.4,52.1,20.8,52.1z"/>
	<path fill="#FFFFFF" d="M19.1,23.9c0.2,0.3,0.3,0.6,0.4,0.9c1.5,3.8-2.5,10.1-3.7,14.5c-0.9,3.2,0.6,6.2,2.3,6.2
		c0.4,0,0.8-0.2,1.3-0.6c0.9,1.2,0.3,2.8-2,2.8c-0.2,0-0.3,0-0.5,0c0.4,0.5,0.9,0.6,1.4,0.6c0.8,0,1.6-0.4,2.2-0.9
		c1-0.8,1.1-1.4,1-2.5c0-0.6,0.7-1.3,1.5-1.3c0.6,0,1.2,0.4,1.5,1.4c1.4-0.8,1.3-1.3,1.4-2.2c2,2.3,1.4,4.7-1,7.3
		c-1.2,1.2-2.6,1.8-4.1,1.8c-1.7,0-3.5-0.8-4.8-2.3c-2.5-2.8-3.6-5.3-1.9-10.1c1.4-3.9,5.8-11.4,4.5-14.4c-0.1-0.2-0.2-0.4-0.3-0.6
		L19.1,23.9 M19.1,23.7c-0.1,0-0.1,0-0.1,0.1l-0.8,0.8c-0.1,0.1-0.1,0.2,0,0.2c0.1,0.2,0.2,0.3,0.3,0.5c0.9,2.1-1.2,6.8-2.9,10.5
		c-0.6,1.4-1.2,2.7-1.6,3.8c-1.7,4.8-0.6,7.4,1.9,10.3c1.3,1.5,3.2,2.4,5,2.4c1.6,0,3.1-0.7,4.3-1.9c2.7-2.9,3-5.3,1.1-7.6
		c0,0-0.1-0.1-0.2-0.1c0,0,0,0-0.1,0c-0.1,0-0.1,0.1-0.1,0.2c0,0.1,0,0.3-0.1,0.4c-0.1,0.6-0.1,1-1.1,1.6c-0.4-1.1-1.2-1.3-1.6-1.3
		c-0.5,0-1,0.2-1.3,0.6c-0.3,0.3-0.4,0.6-0.4,0.9c0.1,1-0.1,1.6-1,2.3c-0.5,0.4-1.3,0.8-2.1,0.8c-0.3,0-0.6-0.1-0.8-0.2
		c1.1,0,2-0.4,2.3-1.2c0.3-0.6,0.2-1.4-0.3-2c0,0-0.1-0.1-0.1-0.1c0,0,0,0,0,0c-0.1,0-0.1,0-0.1,0.1c-0.4,0.3-0.7,0.5-1.1,0.5
		c-0.5,0-1-0.3-1.4-0.8c-0.8-1-1.3-3-0.7-5.1c0.4-1.4,1-2.9,1.7-4.6c1.5-3.6,3.1-7.4,2-10.1c-0.1-0.3-0.3-0.6-0.4-0.9
		C19.2,23.8,19.2,23.7,19.1,23.7C19.1,23.7,19.1,23.7,19.1,23.7L19.1,23.7z"/>
</g>
<g>
	<path fill="#807F81" d="M18.6,42.1c-0.9,0-1.8-0.4-2.2-0.9c-0.2-0.3-0.3-0.5-0.2-0.8c0.3-0.9,1-1.1,1.5-1.1
		c-0.7-0.6-0.6-1.2-0.5-1.4c0.1-0.3,0.3-0.5,0.6-0.5c0.1,0,0.1,0,0.2,0c0.3,0.1,0.6,0.1,0.9,0.1c2.2,0,2.9-2.9,2.9-2.9
		c0,0,0-0.1,0.1-0.1c0,0,0,0,0,0c0,0,0.1,0,0.1,0c0,0,0.9,0.9,0.7,2.7c0,0.2,0,0.4,0,0.5c0,0.9-0.1,1.9-1.2,2.9
		C20.6,41.6,19.6,42.1,18.6,42.1L18.6,42.1z"/>
	<path fill="#FFFFFF" d="M21.8,34.7c0,0,0.9,0.9,0.7,2.7c-0.1,1.1,0.1,2.2-1.2,3.4c-0.8,0.9-1.8,1.2-2.7,1.2c-1.4,0-2.5-0.8-2.3-1.6
		c0.2-0.9,1-1,1.4-1c0.2,0,0.3,0,0.3,0c-1.2-0.9-0.7-1.9-0.2-1.9c0,0,0.1,0,0.1,0c0.3,0.1,0.6,0.1,0.9,0.1
		C21.1,37.7,21.8,34.7,21.8,34.7 M21.8,34.5C21.8,34.5,21.8,34.5,21.8,34.5c-0.1,0-0.2,0.1-0.2,0.2c0,0-0.7,2.8-2.8,2.8
		c-0.3,0-0.5,0-0.8-0.1c-0.1,0-0.1,0-0.2,0c-0.3,0-0.6,0.2-0.7,0.6c-0.1,0.2-0.2,0.7,0.4,1.3c-0.7,0.1-1.2,0.5-1.3,1.1
		c-0.1,0.3,0,0.6,0.2,0.9c0.4,0.6,1.3,0.9,2.3,0.9c1.1,0,2.1-0.5,2.8-1.3c1.2-1,1.2-2,1.3-3c0-0.2,0-0.4,0-0.5
		c0.2-1.8-0.7-2.8-0.8-2.8C21.9,34.5,21.8,34.5,21.8,34.5L21.8,34.5z"/>
</g>
<g>
	<path fill="#807F81" d="M27.2,41.5c-0.7,0-1.3-0.4-1.5-1c-0.2-0.5,0-1,0.5-1.3c1-0.7,0.9-2,0.8-2.6c-0.1,0.5-0.5,1.1-1.4,1.6
		c-0.2,0.1-0.4,0.1-0.6,0.1c-0.8,0-1.6-0.7-1.7-1.4c-0.1-0.4,0.1-0.8,0.5-0.9c0.6-0.2,1.1-0.9,1.4-1.8c0.3-0.9,0.3-1.8,0-2.3
		c-0.2-0.3-0.2-0.5-0.1-0.6c0,0,0.1-0.1,0.2-0.1c0.2,0,0.5,0.1,1.6,1.1c1.3,1.1,2.5,3.7,2.6,5.8c0.1,1.2-0.2,2.1-0.8,2.7
		C28.1,41.4,27.6,41.5,27.2,41.5L27.2,41.5z"/>
	<path fill="#FFFFFF" d="M25.3,31.4c0.2,0,0.6,0.3,1.6,1.1c2,1.7,3.5,6.6,1.8,8.3c-0.5,0.5-1,0.7-1.4,0.7c-1.2,0-2-1.4-0.9-2.2
		c1.5-1,0.7-3.1,0.7-3.1s0,1.3-1.4,1.9c-0.2,0.1-0.4,0.1-0.5,0.1c-1.2,0-2.3-1.7-1.1-2.1c1.3-0.5,2.2-3,1.4-4.2
		C25.2,31.6,25.1,31.4,25.3,31.4 M25.3,31.2c-0.1,0-0.2,0.1-0.3,0.1c0,0.1-0.1,0.2,0.1,0.7c0.3,0.5,0.3,1.3,0,2.2
		c-0.3,0.8-0.8,1.5-1.3,1.7c-0.5,0.2-0.7,0.6-0.6,1c0.1,0.7,0.9,1.5,1.8,1.5c0.2,0,0.4,0,0.6-0.1c0.8-0.3,1.2-0.8,1.4-1.3
		c0.1,0.6,0,1.6-0.8,2.1c-0.5,0.4-0.7,0.9-0.6,1.4c0.2,0.6,0.9,1.1,1.6,1.1c0.4,0,1-0.1,1.5-0.7c0.6-0.6,0.9-1.6,0.8-2.8
		c-0.1-2.1-1.2-4.7-2.6-5.9C25.8,31.3,25.4,31.2,25.3,31.2L25.3,31.2z"/>
</g>
<g>
	<path fill="#807F81" d="M32.8,32.9C32.8,32.9,32.8,32.9,32.8,32.9c-0.7-0.5-2.5-1.8-3.1-1.8c0,0-0.1,0-0.1,0s0-0.1,0-0.1
		c0.1-0.3-0.3-1.3-0.5-1.6c0,0,0-0.1,0-0.1c0,0,0,0,0.1,0c0,0,0,0,0,0c0,0,1,0.5,1.5,0.5c0.1,0,0.1,0,0.1,0c0,0,0,0,0,0
		c0,0,0,0,0.1,0c0,0,0,0,0,0.1c0,0.5,1.3,2.4,1.8,3C33,32.8,33,32.9,32.8,32.9C32.9,32.9,32.9,32.9,32.8,32.9z"/>
	<path fill="#FFFFFF" d="M29.3,29.3c0,0,1,0.5,1.5,0.5c0.1,0,0.1,0,0.2,0c0.1,0.7,1.8,3.1,1.8,3.1s-2.4-1.8-3.1-1.8
		C29.9,30.6,29.3,29.3,29.3,29.3 M29.3,29.1c-0.1,0-0.1,0-0.1,0.1c-0.1,0.1-0.1,0.2,0,0.2c0.2,0.5,0.5,1.3,0.5,1.5
		c0,0.1,0,0.1,0,0.2c0,0.1,0.1,0.1,0.2,0.1c0.4,0,2.1,1.1,3,1.8c0,0,0.1,0,0.1,0c0.1,0,0.1,0,0.1-0.1c0.1-0.1,0.1-0.2,0-0.3
		c-0.7-0.9-1.8-2.5-1.8-3c0-0.1,0-0.1-0.1-0.2c0,0-0.1,0-0.1,0c0,0,0,0-0.1,0c0,0-0.1,0-0.1,0C30.4,29.6,29.7,29.3,29.3,29.1
		C29.4,29.1,29.3,29.1,29.3,29.1L29.3,29.1z"/>
</g>
<g>
	<path fill="#807F81" d="M16.8,25.3c-0.2,0-0.4-0.1-0.6-0.3c-0.3-0.3-0.3-0.9,0-1.2l7.6-7.6c0.2-0.2,0.4-0.2,0.6-0.2
		c0.2,0,0.4,0.1,0.6,0.2c0.3,0.3,0.3,0.9,0,1.2L17.4,25C17.2,25.2,17,25.3,16.8,25.3z"/>
	<path fill="#FFFFFF" d="M24.4,16c0.2,0,0.4,0.1,0.5,0.2c0.3,0.3,0.3,0.8,0,1.1L17.3,25c-0.1,0.1-0.3,0.2-0.5,0.2
		c-0.2,0-0.4-0.1-0.5-0.2c-0.3-0.3-0.3-0.8,0-1.1l7.6-7.6C24,16.1,24.2,16,24.4,16 M24.4,15.8c-0.3,0-0.5,0.1-0.7,0.3l-7.6,7.6
		c-0.4,0.4-0.4,1,0,1.3c0.2,0.2,0.4,0.3,0.7,0.3c0.3,0,0.5-0.1,0.7-0.3l7.6-7.6c0.4-0.4,0.4-1,0-1.3C24.9,15.9,24.7,15.8,24.4,15.8
		L24.4,15.8z"/>
</g>
<g display="none">
	<path display="inline" fill="#807F81" d="M56,9.8c-0.1,0-0.2-0.1-0.2-0.2c-0.1-1-0.4-2-0.9-2.9c0-0.1,0-0.2,0-0.2
		c0-0.1,0.1-0.1,0.2-0.1h267.3c0.1,0,0.2,0,0.2,0.1c0,0.1,0,0.2,0,0.2c-0.5,0.9-0.8,1.9-0.9,2.9c0,0.1-0.1,0.2-0.2,0.2H56z"/>
	<path display="inline" fill="#FFFFFF" d="M322.4,6.6L322.4,6.6 M322.4,6.6c-0.5,0.9-0.8,2-0.9,3h-19.6h-13.6H157.5h-16.4H56
		c-0.1-1.1-0.5-2.1-0.9-3h102.4h130.8h17.9H322.4 M322.4,6.1L322.4,6.1h-16.2h-17.9H157.5H55.1c-0.2,0-0.3,0.1-0.4,0.2
		c-0.1,0.1-0.1,0.3,0,0.5c0.5,0.9,0.8,1.9,0.9,2.9c0,0.2,0.2,0.4,0.5,0.4h85.1h16.4h130.8h13.6h19.6c0.3,0,0.5-0.2,0.5-0.4
		c0.1-1,0.4-1.9,0.9-2.8c0-0.1,0.1-0.2,0.1-0.3C322.9,6.3,322.7,6.1,322.4,6.1L322.4,6.1z"/>
</g>
<g display="none">
	<path display="inline" fill="#807F81" d="M5.9,511.5c0,0-0.1,0-0.1,0c-0.1,0-0.1-0.1-0.1-0.2l0-456.2c0-0.1,0-0.2,0.1-0.2
		c0,0,0.1,0,0.1,0c0,0,0.1,0,0.1,0C7,55.3,8,55.6,9,55.7c0.1,0,0.2,0.1,0.2,0.2l0,454.4c0,0.1-0.1,0.2-0.2,0.2c-1,0.1-2,0.4-2.9,0.9
		C6,511.5,6,511.5,5.9,511.5z"/>
	<path display="inline" fill="#FFFFFF" d="M5.9,55.1c0.9,0.5,2,0.8,3,0.9l0,204.9v31.6v217.9c-1.1,0.1-2.1,0.5-3,0.9V292.5v-31.6
		L5.9,55.1 M5.9,54.6c-0.1,0-0.2,0-0.3,0.1c-0.1,0.1-0.2,0.3-0.2,0.4l0,205.8v31.6v218.8c0,0.2,0.1,0.3,0.2,0.4
		c0.1,0,0.2,0.1,0.3,0.1c0.1,0,0.2,0,0.2-0.1c0.9-0.5,1.9-0.8,2.9-0.9c0.2,0,0.4-0.2,0.4-0.5V292.5v-31.6L9.5,56
		c0-0.3-0.2-0.5-0.4-0.5c-1-0.1-1.9-0.4-2.9-0.9C6.1,54.6,6,54.6,5.9,54.6L5.9,54.6z"/>
</g>
</svg>
